<?xml version="1.0" encoding="UTF-8" standalone="no"?>
<!-- Generator: Adobe Illustrator 15.0.0, SVG Export Plug-In . SVG Version: 6.00 Build 0)  -->

<svg
   xmlns:dc="http://purl.org/dc/elements/1.1/"
   xmlns:cc="http://creativecommons.org/ns#"
   xmlns:rdf="http://www.w3.org/1999/02/22-rdf-syntax-ns#"
   xmlns:svg="http://www.w3.org/2000/svg"
   xmlns="http://www.w3.org/2000/svg"
   xmlns:sodipodi="http://sodipodi.sourceforge.net/DTD/sodipodi-0.dtd"
   xmlns:inkscape="http://www.inkscape.org/namespaces/inkscape"
   version="1.1"
   id="Calque_1"
   x="0px"
   y="0px"
   width="50"
   height="50"
   viewBox="0 0 49.999998 49.999999"
   enable-background="new 0 0 595.28 841.89"
   xml:space="preserve"
   sodipodi:docname="LES ANNONCEURS.svg"
   inkscape:version="0.92.3 (unknown)"><metadata
   id="metadata23"><rdf:RDF><cc:Work
       rdf:about=""><dc:format>image/svg+xml</dc:format><dc:type
         rdf:resource="http://purl.org/dc/dcmitype/StillImage" /><dc:title></dc:title></cc:Work></rdf:RDF></metadata><defs
   id="defs21" /><sodipodi:namedview
   pagecolor="#ffffff"
   bordercolor="#666666"
   borderopacity="1"
   objecttolerance="10"
   gridtolerance="10"
   guidetolerance="10"
   inkscape:pageopacity="0"
   inkscape:pageshadow="2"
   inkscape:window-width="1301"
   inkscape:window-height="744"
   id="namedview19"
   showgrid="false"
   fit-margin-top="0"
   fit-margin-left="0"
   fit-margin-right="0"
   fit-margin-bottom="0"
   inkscape:zoom="0.28032165"
   inkscape:cx="25.040009"
   inkscape:cy="-88.744995"
   inkscape:window-x="65"
   inkscape:window-y="24"
   inkscape:window-maximized="1"
   inkscape:current-layer="Calque_1" />
<rect
   x="0"
   y="0"
   width="50"
   height="50"
   id="rect2"
   style="fill:none" />
<g
   id="g16"
   transform="translate(-272.60001,-282.20001)">
	
		<path
   stroke-miterlimit="10"
   d="m 299.705,313.953 c -7.51,-3.458 -15.161,-5.575 -21.918,-5.241 0.433,-2.951 0.453,-5.688 0.109,-8.235 8.147,0.142 15.214,-1.787 21.75,-4.735 0.959,5.581 0.401,11.953 0.059,18.211 z"
   id="path4"
   inkscape:connector-curvature="0"
   style="clip-rule:evenodd;fill:#ffffff;fill-rule:evenodd;stroke:#000000;stroke-width:1.38300002;stroke-linecap:round;stroke-linejoin:round;stroke-miterlimit:10" />
	
		<rect
   x="275.267"
   y="298.952"
   stroke-miterlimit="10"
   width="3.7390001"
   height="11.05"
   id="rect6"
   style="clip-rule:evenodd;fill:#ffffff;fill-rule:evenodd;stroke:#000000;stroke-width:1.38300002;stroke-linecap:round;stroke-linejoin:round;stroke-miterlimit:10" />
	
		<rect
   x="298.72501"
   y="294.36301"
   stroke-miterlimit="10"
   width="3.5699999"
   height="21.08"
   id="rect8"
   style="clip-rule:evenodd;fill:#ffffff;fill-rule:evenodd;stroke:#010202;stroke-width:1.38300002;stroke-linecap:round;stroke-linejoin:round;stroke-miterlimit:10" />
	
		<line
   stroke-miterlimit="10"
   x1="306.26999"
   y1="300.13199"
   x2="317.797"
   y2="294.17001"
   id="line10"
   style="clip-rule:evenodd;fill:none;fill-rule:evenodd;stroke:#1ab4ea;stroke-width:2.07439995;stroke-linecap:round;stroke-linejoin:round;stroke-miterlimit:10" />
	
		<line
   stroke-miterlimit="10"
   x1="306.26999"
   y1="310.069"
   x2="317.797"
   y2="316.03201"
   id="line12"
   style="clip-rule:evenodd;fill:none;fill-rule:evenodd;stroke:#1ab4ea;stroke-width:2.07439995;stroke-linecap:round;stroke-linejoin:round;stroke-miterlimit:10" />
	
		<line
   stroke-miterlimit="10"
   x1="306.668"
   y1="304.90201"
   x2="320.18201"
   y2="304.90201"
   id="line14"
   style="clip-rule:evenodd;fill:none;fill-rule:evenodd;stroke:#1ab4ea;stroke-width:2.07439995;stroke-linecap:round;stroke-linejoin:round;stroke-miterlimit:10" />
</g>
</svg>