<?xml version="1.0" encoding="UTF-8" standalone="no"?>
<!-- Generator: Adobe Illustrator 15.0.0, SVG Export Plug-In . SVG Version: 6.00 Build 0)  -->

<svg
   xmlns:dc="http://purl.org/dc/elements/1.1/"
   xmlns:cc="http://creativecommons.org/ns#"
   xmlns:rdf="http://www.w3.org/1999/02/22-rdf-syntax-ns#"
   xmlns:svg="http://www.w3.org/2000/svg"
   xmlns="http://www.w3.org/2000/svg"
   xmlns:sodipodi="http://sodipodi.sourceforge.net/DTD/sodipodi-0.dtd"
   xmlns:inkscape="http://www.inkscape.org/namespaces/inkscape"
   version="1.1"
   id="Calque_1"
   x="0px"
   y="0px"
   width="48.382"
   height="48.382"
   viewBox="0 0 48.381998 48.381999"
   enable-background="new 0 0 595.28 841.89"
   xml:space="preserve"
   sodipodi:docname="PASTILLE ENFANT.svg"
   inkscape:version="0.92.3 (2405546, 2018-03-11)"><metadata
   id="metadata31"><rdf:RDF><cc:Work
       rdf:about=""><dc:format>image/svg+xml</dc:format><dc:type
         rdf:resource="http://purl.org/dc/dcmitype/StillImage" /><dc:title></dc:title></cc:Work></rdf:RDF></metadata><defs
   id="defs29" /><sodipodi:namedview
   pagecolor="#ffffff"
   bordercolor="#666666"
   borderopacity="1"
   objecttolerance="10"
   gridtolerance="10"
   guidetolerance="10"
   inkscape:pageopacity="0"
   inkscape:pageshadow="2"
   inkscape:window-width="756"
   inkscape:window-height="480"
   id="namedview27"
   showgrid="false"
   fit-margin-top="0"
   fit-margin-left="0"
   fit-margin-right="0"
   fit-margin-bottom="0"
   inkscape:zoom="0.28032165"
   inkscape:cx="24.619009"
   inkscape:cy="23.895987"
   inkscape:window-x="0"
   inkscape:window-y="0"
   inkscape:window-maximized="0"
   inkscape:current-layer="Calque_1" />
<circle
   cx="24.191"
   cy="24.191"
   r="24.191"
   id="circle2"
    />
<g
   id="g24"
   transform="translate(-273.02101,-396.45899)">
	<path
   d="m 299.332,405.045 c -1.165,0.05 -2.931,-0.018 -4.283,0 0.025,-1.909 0.786,-3.546 2.016,-4.095 0.021,-0.009 0.104,-0.006 0.126,0 1.319,0.362 2.174,2.119 2.141,4.095 z"
   id="path4"
   inkscape:connector-curvature="0"
   style="clip-rule:evenodd;fill:#ffffff;fill-rule:evenodd" />
	<path
   d="m 297.064,400.95 c -0.698,0.814 -1.939,2.393 -1.963,4.091 -0.696,-0.021 -2.229,-10e-4 -2.572,0.067 0.245,-2.148 1.244,-4.2 4.535,-4.158 z"
   id="path6"
   inkscape:connector-curvature="0"
   style="clip-rule:evenodd;fill:#ffffff;fill-rule:evenodd" />
	<path
   d="m 297.337,400.992 c 2.782,-0.253 4.012,1.868 4.515,3.486 0.86,0 1.722,0 2.583,0 0,0.188 0,0.378 0,0.566 -1.577,-0.018 -4.181,0.041 -5.103,0 -0.021,-1.699 -1.089,-3.061 -1.995,-4.052 z"
   id="path8"
   inkscape:connector-curvature="0"
   style="clip-rule:evenodd;fill:#ffffff;fill-rule:evenodd" />
	<path
   d="m 292.529,405.675 c 3.149,0 6.299,0 9.448,0 -0.17,2.893 -2.136,4.934 -5.039,4.787 -2.618,-0.132 -4.23,-1.983 -4.472,-4.598 -0.005,-0.09 -0.01,-0.178 0.063,-0.189 z"
   id="path10"
   inkscape:connector-curvature="0"
   style="clip-rule:evenodd;fill:#ffffff;fill-rule:evenodd" />
	<path
   d="m 303.363,419.028 c -0.167,-0.063 -0.171,-0.291 -0.314,-0.377 0.432,2.717 1.024,5.273 1.448,7.999 -4.871,0 -9.742,0 -14.613,0 0.51,-2.661 0.999,-5.342 1.512,-7.999 -0.121,-0.117 -0.142,0.4 -0.378,0.377 -0.914,-1.164 -2.147,-2.01 -3.023,-3.212 1.662,-1.467 3.209,-3.048 4.85,-4.535 2.118,0 4.253,0 6.488,0 0.707,0 1.566,-0.147 2.142,0 0.462,0.118 0.963,0.856 1.26,1.134 1.073,1.001 2.003,1.835 3.087,2.897 0.122,0.12 0.623,0.415 0.63,0.566 0.012,0.273 -1.389,1.389 -1.575,1.575 -0.606,0.606 -1.014,1.052 -1.514,1.575 z"
   id="path12"
   inkscape:connector-curvature="0"
   style="clip-rule:evenodd;fill:#ffffff;fill-rule:evenodd" />
	<path
   d="m 290.324,419.28 c -0.552,0.535 -1.324,1.069 -2.078,1.639 -0.722,0.544 -1.437,1.408 -2.205,1.512 -1.133,0.151 -1.862,-0.77 -1.764,-1.764 0.109,-1.098 2.938,-3.044 3.527,-3.843 0.93,0.73 1.696,1.622 2.52,2.456 z"
   id="path14"
   inkscape:connector-curvature="0"
   style="clip-rule:evenodd;fill:#ffffff;fill-rule:evenodd" />
	<path
   d="m 304.057,419.344 c 0.813,-0.866 1.653,-1.706 2.52,-2.52 0.546,0.764 3.021,2.383 3.464,3.401 0.419,0.962 -0.355,2.354 -1.574,2.205 -0.856,-0.105 -1.556,-0.976 -2.269,-1.512 -0.792,-0.596 -1.511,-1.109 -2.141,-1.574 z"
   id="path16"
   inkscape:connector-curvature="0"
   style="clip-rule:evenodd;fill:#ffffff;fill-rule:evenodd" />
	<path
   d="m 291.27,427.028 c 3.947,0 7.895,0 11.842,0 -0.291,1.725 -1.29,4.226 -1.664,5.867 -1.65,0.027 -2.343,-0.078 -3.689,-0.028 -0.135,-0.957 0.101,-3.21 -0.441,-3.761 -0.509,0.072 -0.529,0.768 -0.529,1.275 0,0.57 -0.112,1.25 -0.112,1.708 -0.054,-0.012 -0.059,0.748 -0.062,0.787 -1.575,0 -2.131,-0.054 -3.705,-0.054 -0.321,-1.696 -1.302,-4.117 -1.64,-5.794 z"
   id="path18"
   inkscape:connector-curvature="0"
   style="clip-rule:evenodd;fill:#ffffff;fill-rule:evenodd" />
	<path
   d="m 296.623,432.823 c 0,0.972 0,2.142 0,3.339 0,2.034 0.361,4.915 -2.141,4.031 -1.692,-0.598 -0.852,-5.482 -1.575,-7.181 0,-0.063 0,-0.126 0,-0.189 1.239,0 2.478,0 3.716,0 z"
   id="path20"
   inkscape:connector-curvature="0"
   style="clip-rule:evenodd;fill:#ffffff;fill-rule:evenodd" />
	<path
   d="m 297.82,432.823 c 1.218,0 2.436,0 3.653,0 -0.062,1.15 -0.284,2.348 -0.44,3.779 -0.143,1.292 -0.038,2.854 -0.756,3.401 -0.525,0.4 -1.552,0.398 -2.079,-0.062 -0.619,-0.542 -0.44,-2.061 -0.44,-3.275 0,-1.331 0,-2.482 0,-3.653 -0.006,-0.09 -0.011,-0.179 0.062,-0.19 z"
   id="path22"
   inkscape:connector-curvature="0"
   style="clip-rule:evenodd;fill:#ffffff;fill-rule:evenodd" />
</g>
</svg>
