<?xml version="1.0" encoding="UTF-8" standalone="no"?>
<!-- Generator: Adobe Illustrator 15.0.0, SVG Export Plug-In . SVG Version: 6.00 Build 0)  -->

<svg
   xmlns:dc="http://purl.org/dc/elements/1.1/"
   xmlns:cc="http://creativecommons.org/ns#"
   xmlns:rdf="http://www.w3.org/1999/02/22-rdf-syntax-ns#"
   xmlns:svg="http://www.w3.org/2000/svg"
   xmlns="http://www.w3.org/2000/svg"
   xmlns:sodipodi="http://sodipodi.sourceforge.net/DTD/sodipodi-0.dtd"
   xmlns:inkscape="http://www.inkscape.org/namespaces/inkscape"
   version="1.1"
   id="Calque_1"
   x="0px"
   y="0px"
   width="48.382"
   height="48.382"
   viewBox="0 0 48.382001 48.381999"
   enable-background="new 0 0 595.279 841.89"
   xml:space="preserve"
   sodipodi:docname="PASTILLE EUROS.svg"
   inkscape:version="0.92.3 (unknown)"><metadata
   id="metadata16"><rdf:RDF><cc:Work
       rdf:about=""><dc:format>image/svg+xml</dc:format><dc:type
         rdf:resource="http://purl.org/dc/dcmitype/StillImage" /><dc:title></dc:title></cc:Work></rdf:RDF></metadata><defs
   id="defs14" /><sodipodi:namedview
   pagecolor="#ffffff"
   bordercolor="#666666"
   borderopacity="1"
   objecttolerance="10"
   gridtolerance="10"
   guidetolerance="10"
   inkscape:pageopacity="0"
   inkscape:pageshadow="2"
   inkscape:window-width="1301"
   inkscape:window-height="744"
   id="namedview12"
   showgrid="false"
   fit-margin-top="0"
   fit-margin-left="0"
   fit-margin-right="0"
   fit-margin-bottom="0"
   inkscape:zoom="0.28032165"
   inkscape:cx="24.039511"
   inkscape:cy="24.240988"
   inkscape:window-x="65"
   inkscape:window-y="24"
   inkscape:window-maximized="1"
   inkscape:current-layer="Calque_1" />
<g
   id="g9"
   transform="translate(-273.59999,-396.804)">
	<circle
   cx="297.79099"
   cy="420.995"
   r="24.191"
   id="circle2"
  />
	<g
   id="OMyoO6_1_">
		<g
   id="g6">
			<path
   d="m 307.509,407.872 c -0.004,1.363 -0.004,2.438 0.109,3.197 -2.622,-2.151 -6.951,-3.513 -10.915,-2.315 -3.569,1.077 -5.697,4.158 -6.286,8.05 4.779,0.257 10.035,0.035 14.996,0.109 -0.362,0.776 -0.654,1.624 -0.991,2.426 -4.815,0 -9.63,0 -14.445,0 0,1.066 0,2.132 0,3.198 4.154,0.257 8.784,0.037 13.122,0.109 -0.298,0.842 -0.582,1.697 -0.993,2.426 -3.896,0 -7.791,0 -11.688,0 0.723,4.543 3.393,8.217 8.381,8.602 3.761,0.29 6.505,-0.965 8.82,-2.646 -0.401,0.492 0.231,2.35 0,2.977 -0.327,0.891 -2.521,1.537 -3.748,1.875 -9.118,2.51 -16.137,-3.079 -16.539,-10.807 -1.14,0 -2.279,0 -3.419,0 0.143,-0.959 0.581,-1.623 0.883,-2.426 0.734,0 1.47,0 2.205,0 -0.062,-1.22 -0.095,-1.993 0,-3.196 -0.81,-0.258 -2.095,-0.039 -3.088,-0.111 0.143,-0.96 0.581,-1.623 0.883,-2.426 0.771,0 1.543,0 2.315,0 1.151,-5.893 4.355,-10.837 11.026,-11.356 3.719,-0.292 7.05,0.642 9.372,2.314 z"
   id="path4"
   inkscape:connector-curvature="0"
   style="clip-rule:evenodd;fill:#ffffff;fill-rule:evenodd" />
		</g>
	</g>
</g>
</svg>
