<?xml version="1.0" encoding="UTF-8" standalone="no"?>
<!-- Generator: Adobe Illustrator 15.0.0, SVG Export Plug-In . SVG Version: 6.00 Build 0)  -->

<svg
   xmlns:dc="http://purl.org/dc/elements/1.1/"
   xmlns:cc="http://creativecommons.org/ns#"
   xmlns:rdf="http://www.w3.org/1999/02/22-rdf-syntax-ns#"
   xmlns:svg="http://www.w3.org/2000/svg"
   xmlns="http://www.w3.org/2000/svg"
   xmlns:sodipodi="http://sodipodi.sourceforge.net/DTD/sodipodi-0.dtd"
   xmlns:inkscape="http://www.inkscape.org/namespaces/inkscape"
   version="1.1"
   id="Calque_1"
   x="0px"
   y="0px"
   width="48.382"
   height="48.382"
   viewBox="0 0 48.382001 48.381999"
   enable-background="new 0 0 595.279 841.89"
   xml:space="preserve"
   sodipodi:docname="PASTILLE EXT.svg"
   inkscape:version="0.92.3 (unknown)"><metadata
   id="metadata31"><rdf:RDF><cc:Work
       rdf:about=""><dc:format>image/svg+xml</dc:format><dc:type
         rdf:resource="http://purl.org/dc/dcmitype/StillImage" /><dc:title></dc:title></cc:Work></rdf:RDF></metadata><defs
   id="defs29" /><sodipodi:namedview
   pagecolor="#ffffff"
   bordercolor="#666666"
   borderopacity="1"
   objecttolerance="10"
   gridtolerance="10"
   guidetolerance="10"
   inkscape:pageopacity="0"
   inkscape:pageshadow="2"
   inkscape:window-width="1301"
   inkscape:window-height="744"
   id="namedview27"
   showgrid="false"
   fit-margin-top="0"
   fit-margin-left="0"
   fit-margin-right="0"
   fit-margin-bottom="0"
   inkscape:zoom="0.28032165"
   inkscape:cx="23.948507"
   inkscape:cy="24.240988"
   inkscape:window-x="65"
   inkscape:window-y="24"
   inkscape:window-maximized="1"
   inkscape:current-layer="Calque_1" />
<circle
   cx="24.191"
   cy="24.191"
   r="24.191"
   id="circle2"
    />
<g
   id="g24"
   transform="translate(-273.69099,-396.804)">
	<path
   d="m 297.697,407.062 c 0.299,0 0.598,0 0.896,0 -0.479,2.062 -0.885,4.197 -2.018,5.605 0.144,-2.098 0.646,-3.839 1.122,-5.605 z"
   id="path4"
   inkscape:connector-curvature="0"
   style="clip-rule:evenodd;fill:#ffffff;fill-rule:evenodd" />
	<path
   d="m 286.592,407.958 c 2.04,1.175 2.413,4.016 3.589,6.056 -1.43,-1.562 -3.928,-4.193 -3.589,-6.056 z"
   id="path6"
   inkscape:connector-curvature="0"
   style="clip-rule:evenodd;fill:#ffffff;fill-rule:evenodd" />
	<path
   d="m 304.411,409.167 c -1.333,1.745 -3.451,3.856 -5.158,4.485 1.609,-1.383 3.054,-5.068 5.158,-4.485 z"
   id="path8"
   inkscape:connector-curvature="0"
   style="clip-rule:evenodd;fill:#ffffff;fill-rule:evenodd" />
	<path
   d="m 292.785,406.047 c 0.563,2.123 0.937,5.09 0.389,6.824 -0.108,-2.118 -2.137,-5.516 -0.389,-6.824 z"
   id="path10"
   inkscape:connector-curvature="0"
   style="clip-rule:evenodd;fill:#ffffff;fill-rule:evenodd" />
	<path
   d="m 282.806,413.34 c 1.775,0.993 3.64,1.894 4.935,3.364 -2.091,-0.525 -3.54,-1.692 -5.382,-2.467 0.116,-0.331 0.331,-0.565 0.447,-0.897 z"
   id="path12"
   inkscape:connector-curvature="0"
   style="clip-rule:evenodd;fill:#ffffff;fill-rule:evenodd" />
	<path
   d="m 307.039,413.94 c -1.879,0.778 -3.741,1.683 -5.698,1.789 1.708,-1.316 3.521,-1.73 5.271,-2.695 0.189,0.296 0.239,0.609 0.427,0.906 z"
   id="path14"
   inkscape:connector-curvature="0"
   style="clip-rule:evenodd;fill:#ffffff;fill-rule:evenodd" />
	<path
   d="m 281.534,424.681 c 1.943,-0.601 3.884,-1.328 5.841,-1.25 -1.823,1.151 -3.669,1.394 -5.5,2.192 -0.16,-0.313 -0.181,-0.629 -0.341,-0.942 z"
   id="path16"
   inkscape:connector-curvature="0"
   style="clip-rule:evenodd;fill:#ffffff;fill-rule:evenodd" />
	<path
   d="m 301.196,417.154 c -2.031,1.107 -4.337,1.941 -4.934,4.484 -2.169,-0.716 -4.079,0.682 -4.261,2.691 -1.076,-0.352 -1.986,0.067 -2.691,0.673 -5.981,-8.047 7.369,-15.886 11.886,-7.848 z"
   id="path18"
   inkscape:connector-curvature="0"
   style="clip-rule:evenodd;fill:#ffffff;fill-rule:evenodd" />
	<path
   d="m 311.287,421.863 c 4.522,0.164 5.605,8.137 0.673,8.746 0.271,4.215 -6.249,4.955 -7.177,1.346 -0.583,3.608 -6.924,5.351 -8.97,1.794 -0.802,1.458 -3.203,2.18 -4.261,0.448 -1.017,2.8 -6.758,2.147 -6.504,-1.346 -0.747,0.075 -0.994,0.65 -2.019,0.449 -0.125,-0.323 -0.35,-0.548 -0.672,-0.674 -0.126,-1.246 0.213,-2.028 1.345,-2.018 -1.077,-3.171 2.293,-5.751 5.158,-4.261 0.566,-0.405 0.784,-1.16 1.346,-1.569 0.701,0.045 1.646,-0.152 2.019,0.224 0.322,-2.031 1.828,-3.697 4.261,-2.915 0.667,-3.171 5.735,-5.775 8.746,-3.14 1.71,-3.801 9.347,-2.139 6.055,2.916 z"
   id="path20"
   inkscape:connector-curvature="0"
   style="clip-rule:evenodd;fill:#ffffff;fill-rule:evenodd" />
	<path
   d="m 280.788,419.223 c 1.73,0.362 4.143,0.043 5.83,0.449 -1.354,0.691 -4.371,0.823 -6.055,0.448 0.176,-0.199 0.243,-0.505 0.225,-0.897 z"
   id="path22"
   inkscape:connector-curvature="0"
   style="clip-rule:evenodd;fill:#ffffff;fill-rule:evenodd" />
</g>
</svg>
