<?xml version="1.0" encoding="UTF-8" standalone="no"?>
<!-- Generator: Adobe Illustrator 15.0.0, SVG Export Plug-In . SVG Version: 6.00 Build 0)  -->

<svg
   xmlns:dc="http://purl.org/dc/elements/1.1/"
   xmlns:cc="http://creativecommons.org/ns#"
   xmlns:rdf="http://www.w3.org/1999/02/22-rdf-syntax-ns#"
   xmlns:svg="http://www.w3.org/2000/svg"
   xmlns="http://www.w3.org/2000/svg"
   xmlns:sodipodi="http://sodipodi.sourceforge.net/DTD/sodipodi-0.dtd"
   xmlns:inkscape="http://www.inkscape.org/namespaces/inkscape"
   version="1.1"
   id="Calque_1"
   x="0px"
   y="0px"
   width="50"
   height="50"
   viewBox="0 0 49.999998 49.999999"
   enable-background="new 0 0 595.28 841.89"
   xml:space="preserve"
   sodipodi:docname="profil.svg"
   inkscape:version="0.92.4 (unknown)"><metadata
   id="metadata17"><rdf:RDF><cc:Work
       rdf:about=""><dc:format>image/svg+xml</dc:format><dc:type
         rdf:resource="http://purl.org/dc/dcmitype/StillImage" /><dc:title></dc:title></cc:Work></rdf:RDF></metadata><defs
   id="defs15" /><sodipodi:namedview
   pagecolor="#ffffff"
   bordercolor="#666666"
   borderopacity="1"
   objecttolerance="10"
   gridtolerance="10"
   guidetolerance="10"
   inkscape:pageopacity="0"
   inkscape:pageshadow="2"
   inkscape:window-width="1301"
   inkscape:window-height="744"
   id="namedview13"
   showgrid="false"
   inkscape:zoom="0.79286936"
   inkscape:cx="-258.8233"
   inkscape:cy="-211.52673"
   inkscape:window-x="65"
   inkscape:window-y="24"
   inkscape:window-maximized="1"
   inkscape:current-layer="Calque_1"
   fit-margin-top="0"
   fit-margin-left="0"
   fit-margin-right="0"
   fit-margin-bottom="0" />
<rect
   x="0"
   y="0"
   width="50"
   height="50"
   id="rect2"
   style="fill:none" />
<g
   id="g10"
   transform="translate(-272.60001,-282.20001)">
	<rect
   x="277.526"
   y="300.66699"
   width="27.618999"
   height="27.620001"
   id="rect4"
   style="clip-rule:evenodd;fill:#1ab4ea;fill-rule:evenodd" />
	<rect
   x="291.25201"
   y="286.94601"
   width="27.618999"
   height="27.620001"
   id="rect6"
   style="clip-rule:evenodd;fill-rule:evenodd" />
	<rect
   x="291.09799"
   y="300.686"
   width="13.963"
   height="14.04"
   id="rect8"
   style="clip-rule:evenodd;fill:#ffffff;fill-rule:evenodd" />
</g>
</svg>