<?xml version="1.0" encoding="UTF-8" standalone="no"?>
<!-- Generator: Adobe Illustrator 15.0.0, SVG Export Plug-In . SVG Version: 6.00 Build 0)  -->

<svg
   xmlns:dc="http://purl.org/dc/elements/1.1/"
   xmlns:cc="http://creativecommons.org/ns#"
   xmlns:rdf="http://www.w3.org/1999/02/22-rdf-syntax-ns#"
   xmlns:svg="http://www.w3.org/2000/svg"
   xmlns="http://www.w3.org/2000/svg"
   xmlns:sodipodi="http://sodipodi.sourceforge.net/DTD/sodipodi-0.dtd"
   xmlns:inkscape="http://www.inkscape.org/namespaces/inkscape"
   version="1.1"
   id="Calque_1"
   x="0px"
   y="0px"
   width="48.382"
   height="48.382"
   viewBox="0 0 48.381998 48.381999"
   enable-background="new 0 0 595.28 841.89"
   xml:space="preserve"
   sodipodi:docname="PASTILLE PROMOTION.svg"
   inkscape:version="0.92.3 (2405546, 2018-03-11)"><metadata
   id="metadata17"><rdf:RDF><cc:Work
       rdf:about=""><dc:format>image/svg+xml</dc:format><dc:type
         rdf:resource="http://purl.org/dc/dcmitype/StillImage" /><dc:title></dc:title></cc:Work></rdf:RDF></metadata><defs
   id="defs15" /><sodipodi:namedview
   pagecolor="#ffffff"
   bordercolor="#666666"
   borderopacity="1"
   objecttolerance="10"
   gridtolerance="10"
   guidetolerance="10"
   inkscape:pageopacity="0"
   inkscape:pageshadow="2"
   inkscape:window-width="756"
   inkscape:window-height="480"
   id="namedview13"
   showgrid="false"
   fit-margin-top="0"
   fit-margin-left="0"
   fit-margin-right="0"
   fit-margin-bottom="0"
   inkscape:zoom="0.28032165"
   inkscape:cx="24.845022"
   inkscape:cy="23.946005"
   inkscape:window-x="0"
   inkscape:window-y="0"
   inkscape:window-maximized="0"
   inkscape:current-layer="Calque_1" />
<circle
   cx="24.191"
   cy="24.191"
   r="24.191"
   id="circle2"
   />
<g
   id="g10"
   transform="translate(-272.79499,-396.50901)">
	<path
   d="m 301.702,421.246 c -0.296,0 -0.525,0.083 -0.69,0.248 -0.165,0.166 -0.282,0.409 -0.35,0.73 -0.068,0.321 -0.102,0.739 -0.102,1.252 0,0.791 0.084,1.37 0.252,1.735 0.168,0.366 0.464,0.549 0.89,0.549 0.431,0 0.726,-0.188 0.885,-0.562 0.16,-0.375 0.239,-0.962 0.239,-1.758 0,-0.761 -0.083,-1.316 -0.248,-1.668 -0.165,-0.352 -0.457,-0.526 -0.876,-0.526 z"
   id="path4"
   inkscape:connector-curvature="0"
   style="fill:#ffffff" />
	<path
   d="m 315.893,420.637 c -1.696,-0.95 -3.402,-1.892 -5.042,-2.899 0.747,-1.605 1.696,-3.009 2.521,-4.537 -2.021,-0.249 -4.099,-0.439 -6.303,-0.505 -0.103,-1.704 -0.46,-3.152 -0.504,-4.915 -1.815,0.207 -3.846,1.276 -5.673,1.89 -1.56,-1.086 -2.487,-2.806 -3.907,-4.033 -1.368,1.278 -2.342,2.952 -3.907,4.033 -1.739,-0.739 -3.625,-1.332 -5.42,-2.016 -0.513,1.42 -0.448,3.418 -0.757,5.041 -2.204,-0.02 -3.975,0.396 -6.176,0.379 0.597,1.714 1.657,2.964 2.395,4.537 -1.46,1.229 -3.354,2.024 -5.042,3.025 0,0.042 0,0.084 0,0.126 1.753,0.894 3.461,1.833 5.042,2.899 -0.746,1.607 -1.665,3.04 -2.521,4.537 2.092,0.178 4.146,0.392 6.303,0.504 0.209,1.682 0.422,3.361 0.631,5.042 1.959,-0.646 3.761,-1.449 5.798,-2.016 1.303,1.302 2.391,2.819 3.781,4.033 1.193,-1.412 2.28,-2.931 3.781,-4.033 1.872,0.569 3.899,1.642 5.673,1.89 0.098,-1.75 0.276,-3.42 0.63,-4.916 2.063,-0.205 4.378,-0.159 6.177,-0.63 -0.883,-1.471 -1.83,-2.876 -2.521,-4.537 1.761,-0.845 3.281,-1.929 5.042,-2.773 -0.001,-0.042 -0.001,-0.084 -0.001,-0.126 z m -24.683,-0.519 c -0.423,-0.233 -0.752,-0.598 -0.987,-1.093 -0.235,-0.496 -0.354,-1.101 -0.354,-1.814 0,-0.767 0.092,-1.407 0.274,-1.921 0.184,-0.513 0.479,-0.902 0.89,-1.169 0.41,-0.266 0.934,-0.397 1.571,-0.397 0.46,0 0.864,0.07 1.212,0.213 0.349,0.141 0.644,0.357 0.886,0.649 0.241,0.292 0.422,0.648 0.54,1.066 0.118,0.42 0.177,0.912 0.177,1.479 0,1.127 -0.248,1.965 -0.743,2.514 -0.496,0.549 -1.175,0.822 -2.036,0.822 -0.533,0 -1.008,-0.116 -1.43,-0.349 z m 2.739,6.66 c -0.189,0.324 -0.401,0.486 -0.638,0.486 -0.136,0 -0.271,-0.051 -0.407,-0.154 -0.136,-0.103 -0.203,-0.238 -0.203,-0.402 0,-0.124 0.059,-0.275 0.177,-0.451 l 7.417,-11.984 c 0.13,-0.218 0.243,-0.383 0.341,-0.492 0.097,-0.108 0.237,-0.163 0.42,-0.163 0.177,0 0.32,0.052 0.429,0.154 0.109,0.104 0.165,0.241 0.165,0.412 0,0.123 -0.109,0.36 -0.328,0.708 z m 9.789,-0.734 c -0.496,0.548 -1.174,0.823 -2.036,0.823 -0.537,0 -1.017,-0.118 -1.438,-0.354 -0.422,-0.235 -0.752,-0.599 -0.991,-1.088 -0.239,-0.49 -0.358,-1.096 -0.358,-1.814 0,-1.15 0.22,-2.017 0.66,-2.599 0.438,-0.581 1.137,-0.871 2.093,-0.871 0.46,0 0.862,0.07 1.208,0.212 0.346,0.142 0.64,0.354 0.885,0.638 0.245,0.282 0.427,0.635 0.544,1.058 0.118,0.422 0.178,0.916 0.178,1.482 -0.002,1.126 -0.25,1.964 -0.745,2.513 z"
   id="path6"
   inkscape:connector-curvature="0"
   style="fill:#ffffff" />
	<path
   d="m 292.639,414.83 c -0.283,0 -0.509,0.083 -0.677,0.252 -0.168,0.168 -0.283,0.416 -0.346,0.744 -0.062,0.326 -0.093,0.744 -0.093,1.252 0,0.524 0.031,0.953 0.093,1.283 0.062,0.33 0.176,0.579 0.341,0.748 0.165,0.168 0.393,0.252 0.682,0.252 0.437,0 0.733,-0.187 0.89,-0.558 0.156,-0.372 0.234,-0.959 0.234,-1.762 0,-0.772 -0.083,-1.335 -0.248,-1.687 -0.165,-0.349 -0.457,-0.524 -0.876,-0.524 z"
   id="path8"
   inkscape:connector-curvature="0"
   style="fill:#ffffff" />
</g>
</svg>
