{
  "baremeffa": [{
    "id": 1,
    "distance": 0.05,
    "performance": 500,
    "points": 40,
    "libelle": "",
    "athlete": "",
    "date": ""
  },
  {
    "id": 2,
    "distance": 0.05,
    "performance": 556,
    "points": 40,
    "libelle": "RM",
    "athlete": "Donovan Bailey",
    "date": "09-févr-96"
  },
  {
    "id": 3,
    "distance": 0.05,
    "performance": 565,
    "points": 40,
    "libelle": "RF",
    "athlete": "Stéphane Cali",
    "date": "20/02/1998"
  },
  {
    "id": 4,
    "distance": 0.05,
    "performance": 566,
    "points": 40,
    "libelle": "IA",
    "athlete": "",
    "date": ""
  },
  {
    "id": 5,
    "distance": 0.05,
    "performance": 576,
    "points": 35,
    "libelle": "IB",
    "athlete": "",
    "date": ""
  },
  {
    "id": 6,
    "distance": 0.05,
    "performance": 584,
    "points": 30,
    "libelle": "N1",
    "athlete": "",
    "date": ""
  },
  {
    "id": 7,
    "distance": 0.05,
    "performance": 594,
    "points": 28,
    "libelle": "N2",
    "athlete": "",
    "date": ""
  },
  {
    "id": 8,
    "distance": 0.05,
    "performance": 604,
    "points": 26,
    "libelle": "N3",
    "athlete": "",
    "date": ""
  },
  {
    "id": 9,
    "distance": 0.05,
    "performance": 614,
    "points": 24,
    "libelle": "N4",
    "athlete": "",
    "date": ""
  },
  {
    "id": 10,
    "distance": 0.05,
    "performance": 624,
    "points": 21,
    "libelle": "IR1",
    "athlete": "",
    "date": ""
  },
  {
    "id": 11,
    "distance": 0.05,
    "performance": 630,
    "points": 20,
    "libelle": "IR2",
    "athlete": "",
    "date": ""
  },
  {
    "id": 12,
    "distance": 0.05,
    "performance": 637,
    "points": 19,
    "libelle": "IR3",
    "athlete": "",
    "date": ""
  },
  {
    "id": 13,
    "distance": 0.05,
    "performance": 644,
    "points": 18,
    "libelle": "IR4",
    "athlete": "",
    "date": ""
  },
  {
    "id": 14,
    "distance": 0.05,
    "performance": 650,
    "points": 15,
    "libelle": "R1",
    "athlete": "",
    "date": ""
  },
  {
    "id": 15,
    "distance": 0.05,
    "performance": 660,
    "points": 14,
    "libelle": "R2",
    "athlete": "",
    "date": ""
  },
  {
    "id": 16,
    "distance": 0.05,
    "performance": 668,
    "points": 13,
    "libelle": "R3",
    "athlete": "",
    "date": ""
  },
  {
    "id": 17,
    "distance": 0.05,
    "performance": 676,
    "points": 12,
    "libelle": "R4",
    "athlete": "",
    "date": ""
  },
  {
    "id": 18,
    "distance": 0.05,
    "performance": 684,
    "points": 11,
    "libelle": "R5",
    "athlete": "",
    "date": ""
  },
  {
    "id": 19,
    "distance": 0.05,
    "performance": 694,
    "points": 10,
    "libelle": "R6",
    "athlete": "",
    "date": ""
  },
  {
    "id": 20,
    "distance": 0.05,
    "performance": 704,
    "points": 8,
    "libelle": "D1",
    "athlete": "",
    "date": ""
  },
  {
    "id": 21,
    "distance": 0.05,
    "performance": 714,
    "points": 7,
    "libelle": "D2",
    "athlete": "",
    "date": ""
  },
  {
    "id": 22,
    "distance": 0.05,
    "performance": 724,
    "points": 6,
    "libelle": "D3",
    "athlete": "",
    "date": ""
  },
  {
    "id": 23,
    "distance": 0.05,
    "performance": 734,
    "points": 5,
    "libelle": "D4",
    "athlete": "",
    "date": ""
  },
  {
    "id": 24,
    "distance": 0.05,
    "performance": 744,
    "points": 4,
    "libelle": "D5",
    "athlete": "",
    "date": ""
  },
  {
    "id": 25,
    "distance": 0.05,
    "performance": 754,
    "points": 3,
    "libelle": "D6",
    "athlete": "",
    "date": ""
  },
  {
    "id": 26,
    "distance": 0.05,
    "performance": 764,
    "points": 2,
    "libelle": "D7",
    "athlete": "",
    "date": ""
  },
  {
    "id": 27,
    "distance": 0.05,
    "performance": 100000000,
    "points": 0,
    "libelle": "D8",
    "athlete": "",
    "date": ""
  },
  {
    "id": 28,
    "distance": 0.06,
    "performance": 600,
    "points": 40,
    "libelle": "",
    "athlete": "",
    "date": ""
  },
  {
    "id": 29,
    "distance": 0.06,
    "performance": 639,
    "points": 40,
    "libelle": "RM",
    "athlete": "Maurice Green",
    "date": "03/02/1998"
  },
  {
    "id": 30,
    "distance": 0.06,
    "performance": 645,
    "points": 40,
    "libelle": "RF",
    "athlete": "Ronald Pognon",
    "date": "13/02/2005"
  },
  {
    "id": 31,
    "distance": 0.06,
    "performance": 656,
    "points": 40,
    "libelle": "IA",
    "athlete": "",
    "date": ""
  },
  {
    "id": 32,
    "distance": 0.06,
    "performance": 666,
    "points": 35,
    "libelle": "IB",
    "athlete": "",
    "date": ""
  },
  {
    "id": 33,
    "distance": 0.06,
    "performance": 674,
    "points": 30,
    "libelle": "N1",
    "athlete": "",
    "date": ""
  },
  {
    "id": 34,
    "distance": 0.06,
    "performance": 684,
    "points": 28,
    "libelle": "N2",
    "athlete": "",
    "date": ""
  },
  {
    "id": 35,
    "distance": 0.06,
    "performance": 694,
    "points": 26,
    "libelle": "N3",
    "athlete": "",
    "date": ""
  },
  {
    "id": 36,
    "distance": 0.06,
    "performance": 714,
    "points": 24,
    "libelle": "N4",
    "athlete": "",
    "date": ""
  },
  {
    "id": 37,
    "distance": 0.06,
    "performance": 724,
    "points": 21,
    "libelle": "IR1",
    "athlete": "",
    "date": ""
  },
  {
    "id": 38,
    "distance": 0.06,
    "performance": 734,
    "points": 20,
    "libelle": "IR2",
    "athlete": "",
    "date": ""
  },
  {
    "id": 39,
    "distance": 0.06,
    "performance": 744,
    "points": 19,
    "libelle": "IR3",
    "athlete": "",
    "date": ""
  },
  {
    "id": 40,
    "distance": 0.06,
    "performance": 754,
    "points": 18,
    "libelle": "IR4",
    "athlete": "",
    "date": ""
  },
  {
    "id": 41,
    "distance": 0.06,
    "performance": 764,
    "points": 15,
    "libelle": "R1",
    "athlete": "",
    "date": ""
  },
  {
    "id": 42,
    "distance": 0.06,
    "performance": 774,
    "points": 14,
    "libelle": "R2",
    "athlete": "",
    "date": ""
  },
  {
    "id": 43,
    "distance": 0.06,
    "performance": 784,
    "points": 13,
    "libelle": "R3",
    "athlete": "",
    "date": ""
  },
  {
    "id": 44,
    "distance": 0.06,
    "performance": 794,
    "points": 12,
    "libelle": "R4",
    "athlete": "",
    "date": ""
  },
  {
    "id": 45,
    "distance": 0.06,
    "performance": 804,
    "points": 11,
    "libelle": "R5",
    "athlete": "",
    "date": ""
  },
  {
    "id": 46,
    "distance": 0.06,
    "performance": 814,
    "points": 10,
    "libelle": "R6",
    "athlete": "",
    "date": ""
  },
  {
    "id": 47,
    "distance": 0.06,
    "performance": 824,
    "points": 8,
    "libelle": "D1",
    "athlete": "",
    "date": ""
  },
  {
    "id": 48,
    "distance": 0.06,
    "performance": 834,
    "points": 7,
    "libelle": "D2",
    "athlete": "",
    "date": ""
  },
  {
    "id": 49,
    "distance": 0.06,
    "performance": 844,
    "points": 6,
    "libelle": "D3",
    "athlete": "",
    "date": ""
  },
  {
    "id": 50,
    "distance": 0.06,
    "performance": 854,
    "points": 5,
    "libelle": "D4",
    "athlete": "",
    "date": ""
  },
  {
    "id": 51,
    "distance": 0.06,
    "performance": 864,
    "points": 4,
    "libelle": "D5",
    "athlete": "",
    "date": ""
  },
  {
    "id": 52,
    "distance": 0.06,
    "performance": 884,
    "points": 3,
    "libelle": "D6",
    "athlete": "",
    "date": ""
  },
  {
    "id": 53,
    "distance": 0.06,
    "performance": 904,
    "points": 2,
    "libelle": "D7",
    "athlete": "",
    "date": ""
  },
  {
    "id": 54,
    "distance": 0.06,
    "performance": 100000000,
    "points": 0,
    "libelle": "D8",
    "athlete": "",
    "date": ""
  },
  {
    "id": 55,
    "distance": 0.1,
    "performance": 900,
    "points": 40,
    "libelle": "",
    "athlete": "",
    "date": ""
  },
  {
    "id": 56,
    "distance": 0.1,
    "performance": 958,
    "points": 40,
    "libelle": "RM",
    "athlete": "Usain Bolt",
    "date": "16/08/2009"
  },
  {
    "id": 57,
    "distance": 0.1,
    "performance": 986,
    "points": 40,
    "libelle": "RF",
    "athlete": "Jimmy Vicaut",
    "date": "07/07/2016"
  },
  {
    "id": 58,
    "distance": 0.1,
    "performance": 1010,
    "points": 40,
    "libelle": "IA",
    "athlete": "",
    "date": ""
  },
  {
    "id": 59,
    "distance": 0.1,
    "performance": 1020,
    "points": 35,
    "libelle": "IB",
    "athlete": "",
    "date": ""
  },
  {
    "id": 60,
    "distance": 0.1,
    "performance": 1034,
    "points": 30,
    "libelle": "N1",
    "athlete": "",
    "date": ""
  },
  {
    "id": 61,
    "distance": 0.1,
    "performance": 1064,
    "points": 28,
    "libelle": "N2",
    "athlete": "",
    "date": ""
  },
  {
    "id": 62,
    "distance": 0.1,
    "performance": 1084,
    "points": 26,
    "libelle": "N3",
    "athlete": "",
    "date": ""
  },
  {
    "id": 63,
    "distance": 0.1,
    "performance": 1094,
    "points": 24,
    "libelle": "N4",
    "athlete": "",
    "date": ""
  },
  {
    "id": 64,
    "distance": 0.1,
    "performance": 1114,
    "points": 21,
    "libelle": "IR1",
    "athlete": "",
    "date": ""
  },
  {
    "id": 65,
    "distance": 0.1,
    "performance": 1134,
    "points": 20,
    "libelle": "IR2",
    "athlete": "",
    "date": ""
  },
  {
    "id": 66,
    "distance": 0.1,
    "performance": 1144,
    "points": 19,
    "libelle": "IR3",
    "athlete": "",
    "date": ""
  },
  {
    "id": 67,
    "distance": 0.1,
    "performance": 1154,
    "points": 18,
    "libelle": "IR4",
    "athlete": "",
    "date": ""
  },
  {
    "id": 68,
    "distance": 0.1,
    "performance": 1174,
    "points": 15,
    "libelle": "R1",
    "athlete": "",
    "date": ""
  },
  {
    "id": 69,
    "distance": 0.1,
    "performance": 1194,
    "points": 14,
    "libelle": "R2",
    "athlete": "",
    "date": ""
  },
  {
    "id": 70,
    "distance": 0.1,
    "performance": 1214,
    "points": 13,
    "libelle": "R3",
    "athlete": "",
    "date": ""
  },
  {
    "id": 71,
    "distance": 0.1,
    "performance": 1224,
    "points": 12,
    "libelle": "R4",
    "athlete": "",
    "date": ""
  },
  {
    "id": 72,
    "distance": 0.1,
    "performance": 1234,
    "points": 11,
    "libelle": "R5",
    "athlete": "",
    "date": ""
  },
  {
    "id": 73,
    "distance": 0.1,
    "performance": 1244,
    "points": 10,
    "libelle": "R6",
    "athlete": "",
    "date": ""
  },
  {
    "id": 74,
    "distance": 0.1,
    "performance": 1254,
    "points": 8,
    "libelle": "D1",
    "athlete": "",
    "date": ""
  },
  {
    "id": 75,
    "distance": 0.1,
    "performance": 1274,
    "points": 7,
    "libelle": "D2",
    "athlete": "",
    "date": ""
  },
  {
    "id": 76,
    "distance": 0.1,
    "performance": 1294,
    "points": 6,
    "libelle": "D3",
    "athlete": "",
    "date": ""
  },
  {
    "id": 77,
    "distance": 0.1,
    "performance": 1314,
    "points": 5,
    "libelle": "D4",
    "athlete": "",
    "date": ""
  },
  {
    "id": 78,
    "distance": 0.1,
    "performance": 1344,
    "points": 4,
    "libelle": "D5",
    "athlete": "",
    "date": ""
  },
  {
    "id": 79,
    "distance": 0.1,
    "performance": 1374,
    "points": 3,
    "libelle": "D6",
    "athlete": "",
    "date": ""
  },
  {
    "id": 80,
    "distance": 0.1,
    "performance": 1414,
    "points": 2,
    "libelle": "D7",
    "athlete": "",
    "date": ""
  },
  {
    "id": 81,
    "distance": 0.1,
    "performance": 100000000,
    "points": 0,
    "libelle": "D8",
    "athlete": "",
    "date": ""
  },
  {
    "id": 82,
    "distance": 0.2,
    "performance": 1850,
    "points": 40,
    "libelle": "",
    "athlete": "",
    "date": ""
  },
  {
    "id": 83,
    "distance": 0.2,
    "performance": 1919,
    "points": 40,
    "libelle": "RM",
    "athlete": "Usain Bolt",
    "date": "20/08/2009"
  },
  {
    "id": 84,
    "distance": 0.2,
    "performance": 1980,
    "points": 40,
    "libelle": "RF",
    "athlete": "Cristophe Lemaitre",
    "date": "03/09/2011"
  },
  {
    "id": 85,
    "distance": 0.2,
    "performance": 2044,
    "points": 40,
    "libelle": "IA",
    "athlete": "",
    "date": ""
  },
  {
    "id": 86,
    "distance": 0.2,
    "performance": 2064,
    "points": 35,
    "libelle": "IB",
    "athlete": "",
    "date": ""
  },
  {
    "id": 87,
    "distance": 0.2,
    "performance": 2094,
    "points": 30,
    "libelle": "N1",
    "athlete": "",
    "date": ""
  },
  {
    "id": 88,
    "distance": 0.2,
    "performance": 2144,
    "points": 28,
    "libelle": "N2",
    "athlete": "",
    "date": ""
  },
  {
    "id": 89,
    "distance": 0.2,
    "performance": 2184,
    "points": 26,
    "libelle": "N3",
    "athlete": "",
    "date": ""
  },
  {
    "id": 90,
    "distance": 0.2,
    "performance": 2224,
    "points": 24,
    "libelle": "N4",
    "athlete": "",
    "date": ""
  },
  {
    "id": 91,
    "distance": 0.2,
    "performance": 2254,
    "points": 21,
    "libelle": "IR1",
    "athlete": "",
    "date": ""
  },
  {
    "id": 92,
    "distance": 0.2,
    "performance": 2284,
    "points": 20,
    "libelle": "IR2",
    "athlete": "",
    "date": ""
  },
  {
    "id": 93,
    "distance": 0.2,
    "performance": 2314,
    "points": 19,
    "libelle": "IR3",
    "athlete": "",
    "date": ""
  },
  {
    "id": 94,
    "distance": 0.2,
    "performance": 2344,
    "points": 18,
    "libelle": "IR4",
    "athlete": "",
    "date": ""
  },
  {
    "id": 95,
    "distance": 0.2,
    "performance": 2374,
    "points": 15,
    "libelle": "R1",
    "athlete": "",
    "date": ""
  },
  {
    "id": 96,
    "distance": 0.2,
    "performance": 2414,
    "points": 14,
    "libelle": "R2",
    "athlete": "",
    "date": ""
  },
  {
    "id": 97,
    "distance": 0.2,
    "performance": 2454,
    "points": 13,
    "libelle": "R3",
    "athlete": "",
    "date": ""
  },
  {
    "id": 98,
    "distance": 0.2,
    "performance": 2484,
    "points": 12,
    "libelle": "R4",
    "athlete": "",
    "date": ""
  },
  {
    "id": 99,
    "distance": 0.2,
    "performance": 2514,
    "points": 11,
    "libelle": "R5",
    "athlete": "",
    "date": ""
  },
  {
    "id": 100,
    "distance": 0.2,
    "performance": 2544,
    "points": 10,
    "libelle": "R6",
    "athlete": "",
    "date": ""
  },
  {
    "id": 101,
    "distance": 0.2,
    "performance": 2574,
    "points": 8,
    "libelle": "D1",
    "athlete": "",
    "date": ""
  },
  {
    "id": 102,
    "distance": 0.2,
    "performance": 2614,
    "points": 7,
    "libelle": "D2",
    "athlete": "",
    "date": ""
  },
  {
    "id": 103,
    "distance": 0.2,
    "performance": 2654,
    "points": 6,
    "libelle": "D3",
    "athlete": "",
    "date": ""
  },
  {
    "id": 104,
    "distance": 0.2,
    "performance": 2694,
    "points": 5,
    "libelle": "D4",
    "athlete": "",
    "date": ""
  },
  {
    "id": 105,
    "distance": 0.2,
    "performance": 2744,
    "points": 4,
    "libelle": "D5",
    "athlete": "",
    "date": ""
  },
  {
    "id": 106,
    "distance": 0.2,
    "performance": 2824,
    "points": 3,
    "libelle": "D6",
    "athlete": "",
    "date": ""
  },
  {
    "id": 107,
    "distance": 0.2,
    "performance": 2904,
    "points": 2,
    "libelle": "D7",
    "athlete": "",
    "date": ""
  },
  {
    "id": 108,
    "distance": 0.2,
    "performance": 100000000,
    "points": 0,
    "libelle": "D8",
    "athlete": "",
    "date": ""
  },
  {
    "id": 109,
    "distance": 0.4,
    "performance": 4200,
    "points": 40,
    "libelle": "",
    "athlete": "",
    "date": ""
  },
  {
    "id": 110,
    "distance": 0.4,
    "performance": 4318,
    "points": 40,
    "libelle": "RM",
    "athlete": "Michael Johnson",
    "date": "26/08/1999"
  },
  {
    "id": 111,
    "distance": 0.4,
    "performance": 4446,
    "points": 40,
    "libelle": "RF",
    "athlete": "Leslie Djhone",
    "date": "29/08/2007"
  },
  {
    "id": 112,
    "distance": 0.4,
    "performance": 4524,
    "points": 40,
    "libelle": "IA",
    "athlete": "",
    "date": ""
  },
  {
    "id": 113,
    "distance": 0.4,
    "performance": 4584,
    "points": 35,
    "libelle": "IB",
    "athlete": "",
    "date": ""
  },
  {
    "id": 114,
    "distance": 0.4,
    "performance": 4664,
    "points": 30,
    "libelle": "N1",
    "athlete": "",
    "date": ""
  },
  {
    "id": 115,
    "distance": 0.4,
    "performance": 4764,
    "points": 28,
    "libelle": "N2",
    "athlete": "",
    "date": ""
  },
  {
    "id": 116,
    "distance": 0.4,
    "performance": 4864,
    "points": 26,
    "libelle": "N3",
    "athlete": "",
    "date": ""
  },
  {
    "id": 117,
    "distance": 0.4,
    "performance": 4964,
    "points": 24,
    "libelle": "N4",
    "athlete": "",
    "date": ""
  },
  {
    "id": 118,
    "distance": 0.4,
    "performance": 5044,
    "points": 21,
    "libelle": "IR1",
    "athlete": "",
    "date": ""
  },
  {
    "id": 119,
    "distance": 0.4,
    "performance": 5144,
    "points": 20,
    "libelle": "IR2",
    "athlete": "",
    "date": ""
  },
  {
    "id": 120,
    "distance": 0.4,
    "performance": 5244,
    "points": 19,
    "libelle": "IR3",
    "athlete": "",
    "date": ""
  },
  {
    "id": 121,
    "distance": 0.4,
    "performance": 5344,
    "points": 18,
    "libelle": "IR4",
    "athlete": "",
    "date": ""
  },
  {
    "id": 122,
    "distance": 0.4,
    "performance": 5444,
    "points": 15,
    "libelle": "R1",
    "athlete": "",
    "date": ""
  },
  {
    "id": 123,
    "distance": 0.4,
    "performance": 5544,
    "points": 14,
    "libelle": "R2",
    "athlete": "",
    "date": ""
  },
  {
    "id": 124,
    "distance": 0.4,
    "performance": 5644,
    "points": 13,
    "libelle": "R3",
    "athlete": "",
    "date": ""
  },
  {
    "id": 125,
    "distance": 0.4,
    "performance": 5744,
    "points": 12,
    "libelle": "R4",
    "athlete": "",
    "date": ""
  },
  {
    "id": 126,
    "distance": 0.4,
    "performance": 5844,
    "points": 11,
    "libelle": "R5",
    "athlete": "",
    "date": ""
  },
  {
    "id": 127,
    "distance": 0.4,
    "performance": 5944,
    "points": 10,
    "libelle": "R6",
    "athlete": "",
    "date": ""
  },
  {
    "id": 128,
    "distance": 0.4,
    "performance": 6044,
    "points": 8,
    "libelle": "D1",
    "athlete": "",
    "date": ""
  },
  {
    "id": 129,
    "distance": 0.4,
    "performance": 6144,
    "points": 7,
    "libelle": "D2",
    "athlete": "",
    "date": ""
  },
  {
    "id": 130,
    "distance": 0.4,
    "performance": 6244,
    "points": 6,
    "libelle": "D3",
    "athlete": "",
    "date": ""
  },
  {
    "id": 131,
    "distance": 0.4,
    "performance": 6344,
    "points": 5,
    "libelle": "D4",
    "athlete": "",
    "date": ""
  },
  {
    "id": 132,
    "distance": 0.4,
    "performance": 6444,
    "points": 4,
    "libelle": "D5",
    "athlete": "",
    "date": ""
  },
  {
    "id": 133,
    "distance": 0.4,
    "performance": 6544,
    "points": 3,
    "libelle": "D6",
    "athlete": "",
    "date": ""
  },
  {
    "id": 134,
    "distance": 0.4,
    "performance": 6644,
    "points": 2,
    "libelle": "D7",
    "athlete": "",
    "date": ""
  },
  {
    "id": 135,
    "distance": 0.4,
    "performance": 100000000,
    "points": 0,
    "libelle": "D8",
    "athlete": "",
    "date": ""
  },
  {
    "id": 136,
    "distance": 0.8,
    "performance": "10000",
    "points": 40,
    "libelle": "",
    "athlete": "",
    "date": ""
  },
  {
    "id": 137,
    "distance": 0.8,
    "performance": 10091,
    "points": 40,
    "libelle": "RM",
    "athlete": "David Rudisha",
    "date": "09/08/2012"
  },
  {
    "id": 138,
    "distance": 0.8,
    "performance": 10253,
    "points": 40,
    "libelle": "RF",
    "athlete": "Pierre Ambroise Bosse",
    "date": "18/07/2014"
  },
  {
    "id": 139,
    "distance": 0.8,
    "performance": 10554,
    "points": 40,
    "libelle": "IA",
    "athlete": "",
    "date": ""
  },
  {
    "id": 140,
    "distance": 0.8,
    "performance": 10654,
    "points": 35,
    "libelle": "IB",
    "athlete": "",
    "date": ""
  },
  {
    "id": 141,
    "distance": 0.8,
    "performance": 10800,
    "points": 30,
    "libelle": "N1",
    "athlete": "",
    "date": ""
  },
  {
    "id": 142,
    "distance": 0.8,
    "performance": 11000,
    "points": 28,
    "libelle": "N2",
    "athlete": "",
    "date": ""
  },
  {
    "id": 143,
    "distance": 0.8,
    "performance": 11200,
    "points": 26,
    "libelle": "N3",
    "athlete": "",
    "date": ""
  },
  {
    "id": 144,
    "distance": 0.8,
    "performance": 11400,
    "points": 24,
    "libelle": "N4",
    "athlete": "",
    "date": ""
  },
  {
    "id": 145,
    "distance": 0.8,
    "performance": 11700,
    "points": 21,
    "libelle": "IR1",
    "athlete": "",
    "date": ""
  },
  {
    "id": 146,
    "distance": 0.8,
    "performance": 11900,
    "points": 20,
    "libelle": "IR2",
    "athlete": "",
    "date": ""
  },
  {
    "id": 147,
    "distance": 0.8,
    "performance": 12100,
    "points": 19,
    "libelle": "IR3",
    "athlete": "",
    "date": ""
  },
  {
    "id": 148,
    "distance": 0.8,
    "performance": 12300,
    "points": 18,
    "libelle": "IR4",
    "athlete": "",
    "date": ""
  },
  {
    "id": 149,
    "distance": 0.8,
    "performance": 12500,
    "points": 15,
    "libelle": "R1",
    "athlete": "",
    "date": ""
  },
  {
    "id": 150,
    "distance": 0.8,
    "performance": 12700,
    "points": 14,
    "libelle": "R2",
    "athlete": "",
    "date": ""
  },
  {
    "id": 151,
    "distance": 0.8,
    "performance": 12900,
    "points": 13,
    "libelle": "R3",
    "athlete": "",
    "date": ""
  },
  {
    "id": 152,
    "distance": 0.8,
    "performance": 13100,
    "points": 12,
    "libelle": "R4",
    "athlete": "",
    "date": ""
  },
  {
    "id": 153,
    "distance": 0.8,
    "performance": 13400,
    "points": 11,
    "libelle": "R5",
    "athlete": "",
    "date": ""
  },
  {
    "id": 154,
    "distance": 0.8,
    "performance": 13700,
    "points": 10,
    "libelle": "R6",
    "athlete": "",
    "date": ""
  },
  {
    "id": 155,
    "distance": 0.8,
    "performance": 14000,
    "points": 8,
    "libelle": "D1",
    "athlete": "",
    "date": ""
  },
  {
    "id": 156,
    "distance": 0.8,
    "performance": 14200,
    "points": 7,
    "libelle": "D2",
    "athlete": "",
    "date": ""
  },
  {
    "id": 157,
    "distance": 0.8,
    "performance": 14400,
    "points": 6,
    "libelle": "D3",
    "athlete": "",
    "date": ""
  },
  {
    "id": 158,
    "distance": 0.8,
    "performance": 14700,
    "points": 5,
    "libelle": "D4",
    "athlete": "",
    "date": ""
  },
  {
    "id": 159,
    "distance": 0.8,
    "performance": 15000,
    "points": 4,
    "libelle": "D5",
    "athlete": "",
    "date": ""
  },
  {
    "id": 160,
    "distance": 0.8,
    "performance": 15300,
    "points": 3,
    "libelle": "D6",
    "athlete": "",
    "date": ""
  },
  {
    "id": 161,
    "distance": 0.8,
    "performance": 15600,
    "points": 2,
    "libelle": "D7",
    "athlete": "",
    "date": ""
  },
  {
    "id": 162,
    "distance": 0.8,
    "performance": 100000000,
    "points": 0,
    "libelle": "D8",
    "athlete": "",
    "date": ""
  },
  {
    "id": 163,
    "distance": 1,
    "performance": 13000,
    "points": 40,
    "libelle": "",
    "athlete": "",
    "date": ""
  },
  {
    "id": 164,
    "distance": 1,
    "performance": 13196,
    "points": 40,
    "libelle": "RM",
    "athlete": "Noah Ngeny",
    "date": "05/09/1999"
  },
  {
    "id": 165,
    "distance": 1,
    "performance": 13396,
    "points": 40,
    "libelle": "RF",
    "athlete": "Mehdi Baala",
    "date": "26/06/2003"
  },
  {
    "id": 166,
    "distance": 1,
    "performance": 13600,
    "points": 40,
    "libelle": "IA",
    "athlete": "",
    "date": ""
  },
  {
    "id": 167,
    "distance": 1,
    "performance": 13750,
    "points": 35,
    "libelle": "IB",
    "athlete": "",
    "date": ""
  },
  {
    "id": 168,
    "distance": 1,
    "performance": 13900,
    "points": 30,
    "libelle": "N1",
    "athlete": "",
    "date": ""
  },
  {
    "id": 169,
    "distance": 1,
    "performance": 14150,
    "points": 28,
    "libelle": "N2",
    "athlete": "",
    "date": ""
  },
  {
    "id": 170,
    "distance": 1,
    "performance": 14400,
    "points": 26,
    "libelle": "N3",
    "athlete": "",
    "date": ""
  },
  {
    "id": 171,
    "distance": 1,
    "performance": 14650,
    "points": 24,
    "libelle": "N4",
    "athlete": "",
    "date": ""
  },
  {
    "id": 172,
    "distance": 1,
    "performance": 15000,
    "points": 21,
    "libelle": "IR1",
    "athlete": "",
    "date": ""
  },
  {
    "id": 173,
    "distance": 1,
    "performance": 15250,
    "points": 20,
    "libelle": "IR2",
    "athlete": "",
    "date": ""
  },
  {
    "id": 174,
    "distance": 1,
    "performance": 15500,
    "points": 19,
    "libelle": "IR3",
    "athlete": "",
    "date": ""
  },
  {
    "id": 175,
    "distance": 1,
    "performance": 15800,
    "points": 18,
    "libelle": "IR4",
    "athlete": "",
    "date": ""
  },
  {
    "id": 176,
    "distance": 1,
    "performance": 16100,
    "points": 15,
    "libelle": "R1",
    "athlete": "",
    "date": ""
  },
  {
    "id": 177,
    "distance": 1,
    "performance": 16400,
    "points": 14,
    "libelle": "R2",
    "athlete": "",
    "date": ""
  },
  {
    "id": 178,
    "distance": 1,
    "performance": 16700,
    "points": 13,
    "libelle": "R3",
    "athlete": "",
    "date": ""
  },
  {
    "id": 179,
    "distance": 1,
    "performance": 17000,
    "points": 12,
    "libelle": "R4",
    "athlete": "",
    "date": ""
  },
  {
    "id": 180,
    "distance": 1,
    "performance": 17300,
    "points": 11,
    "libelle": "R5",
    "athlete": "",
    "date": ""
  },
  {
    "id": 181,
    "distance": 1,
    "performance": 17700,
    "points": 10,
    "libelle": "R6",
    "athlete": "",
    "date": ""
  },
  {
    "id": 182,
    "distance": 1,
    "performance": 18100,
    "points": 8,
    "libelle": "D1",
    "athlete": "",
    "date": ""
  },
  {
    "id": 183,
    "distance": 1,
    "performance": 18400,
    "points": 7,
    "libelle": "D2",
    "athlete": "",
    "date": ""
  },
  {
    "id": 184,
    "distance": 1,
    "performance": 18800,
    "points": 6,
    "libelle": "D3",
    "athlete": "",
    "date": ""
  },
  {
    "id": 185,
    "distance": 1,
    "performance": 19200,
    "points": 5,
    "libelle": "D4",
    "athlete": "",
    "date": ""
  },
  {
    "id": 186,
    "distance": 1,
    "performance": 19600,
    "points": 4,
    "libelle": "D5",
    "athlete": "",
    "date": ""
  },
  {
    "id": 187,
    "distance": 1,
    "performance": 20000,
    "points": 3,
    "libelle": "D6",
    "athlete": "",
    "date": ""
  },
  {
    "id": 188,
    "distance": 1,
    "performance": 20500,
    "points": 2,
    "libelle": "D7",
    "athlete": "",
    "date": ""
  },
  {
    "id": 189,
    "distance": 1,
    "performance": 100000000,
    "points": 0,
    "libelle": "D8",
    "athlete": "",
    "date": ""
  },
  {
    "id": 190,
    "distance": 1.5,
    "performance": 205000,
    "points": 40,
    "libelle": "",
    "athlete": "",
    "date": ""
  },
  {
    "id": 191,
    "distance": 1.5,
    "performance": 20600,
    "points": 40,
    "libelle": "RM",
    "athlete": "Hicham El Guerrouj",
    "date": "14/07/1998"
  },
  {
    "id": 192,
    "distance": 1.5,
    "performance": 20898,
    "points": 40,
    "libelle": "RF",
    "athlete": "Mehdi Baala",
    "date": "05/09/2003"
  },
  {
    "id": 193,
    "distance": 1.5,
    "performance": 21400,
    "points": 40,
    "libelle": "IA",
    "athlete": "",
    "date": ""
  },
  {
    "id": 194,
    "distance": 1.5,
    "performance": 21700,
    "points": 35,
    "libelle": "IB",
    "athlete": "",
    "date": ""
  },
  {
    "id": 195,
    "distance": 1.5,
    "performance": 22200,
    "points": 30,
    "libelle": "N1",
    "athlete": "",
    "date": ""
  },
  {
    "id": 196,
    "distance": 1.5,
    "performance": 22600,
    "points": 28,
    "libelle": "N2",
    "athlete": "",
    "date": ""
  },
  {
    "id": 197,
    "distance": 1.5,
    "performance": 23000,
    "points": 26,
    "libelle": "N3",
    "athlete": "",
    "date": ""
  },
  {
    "id": 198,
    "distance": 1.5,
    "performance": 23400,
    "points": 24,
    "libelle": "N4",
    "athlete": "",
    "date": ""
  },
  {
    "id": 199,
    "distance": 1.5,
    "performance": 23900,
    "points": 21,
    "libelle": "IR1",
    "athlete": "",
    "date": ""
  },
  {
    "id": 200,
    "distance": 1.5,
    "performance": 24400,
    "points": 20,
    "libelle": "IR2",
    "athlete": "",
    "date": ""
  },
  {
    "id": 201,
    "distance": 1.5,
    "performance": 24900,
    "points": 19,
    "libelle": "IR3",
    "athlete": "",
    "date": ""
  },
  {
    "id": 202,
    "distance": 1.5,
    "performance": 25400,
    "points": 18,
    "libelle": "IR4",
    "athlete": "",
    "date": ""
  },
  {
    "id": 203,
    "distance": 1.5,
    "performance": 25900,
    "points": 15,
    "libelle": "R1",
    "athlete": "",
    "date": ""
  },
  {
    "id": 204,
    "distance": 1.5,
    "performance": 26400,
    "points": 14,
    "libelle": "R2",
    "athlete": "",
    "date": ""
  },
  {
    "id": 205,
    "distance": 1.5,
    "performance": 26900,
    "points": 13,
    "libelle": "R3",
    "athlete": "",
    "date": ""
  },
  {
    "id": 206,
    "distance": 1.5,
    "performance": 27400,
    "points": 12,
    "libelle": "R4",
    "athlete": "",
    "date": ""
  },
  {
    "id": 207,
    "distance": 1.5,
    "performance": 27900,
    "points": 11,
    "libelle": "R5",
    "athlete": "",
    "date": ""
  },
  {
    "id": 208,
    "distance": 1.5,
    "performance": 28400,
    "points": 10,
    "libelle": "R6",
    "athlete": "",
    "date": ""
  },
  {
    "id": 209,
    "distance": 1.5,
    "performance": 28900,
    "points": 8,
    "libelle": "D1",
    "athlete": "",
    "date": ""
  },
  {
    "id": 210,
    "distance": 1.5,
    "performance": 29400,
    "points": 7,
    "libelle": "D2",
    "athlete": "",
    "date": ""
  },
  {
    "id": 211,
    "distance": 1.5,
    "performance": 29900,
    "points": 6,
    "libelle": "D3",
    "athlete": "",
    "date": ""
  },
  {
    "id": 212,
    "distance": 1.5,
    "performance": 30400,
    "points": 5,
    "libelle": "D4",
    "athlete": "",
    "date": ""
  },
  {
    "id": 213,
    "distance": 1.5,
    "performance": 31200,
    "points": 4,
    "libelle": "D5",
    "athlete": "",
    "date": ""
  },
  {
    "id": 214,
    "distance": 1.5,
    "performance": 32000,
    "points": 3,
    "libelle": "D6",
    "athlete": "",
    "date": ""
  },
  {
    "id": 215,
    "distance": 1.5,
    "performance": 32800,
    "points": 2,
    "libelle": "D7",
    "athlete": "",
    "date": ""
  },
  {
    "id": 216,
    "distance": 1.5,
    "performance": 100000000,
    "points": 0,
    "libelle": "D8",
    "athlete": "",
    "date": ""
  },
  {
    "id": 217,
    "distance": 3,
    "performance": 44000,
    "points": 40,
    "libelle": "",
    "athlete": "",
    "date": ""
  },
  {
    "id": 218,
    "distance": 3,
    "performance": 44067,
    "points": 40,
    "libelle": "RM",
    "athlete": "Hicham El Guerrouj",
    "date": "01/09/1996"
  },
  {
    "id": 219,
    "distance": 3,
    "performance": 45078,
    "points": 40,
    "libelle": "RF",
    "athlete": "Mustapha Essaid",
    "date": "08/08/1998"
  },
  {
    "id": 220,
    "distance": 3,
    "performance": 46400,
    "points": 40,
    "libelle": "IA",
    "athlete": "",
    "date": ""
  },
  {
    "id": 221,
    "distance": 3,
    "performance": 47000,
    "points": 35,
    "libelle": "IB",
    "athlete": "",
    "date": ""
  },
  {
    "id": 222,
    "distance": 3,
    "performance": 48000,
    "points": 30,
    "libelle": "N1",
    "athlete": "",
    "date": ""
  },
  {
    "id": 223,
    "distance": 3,
    "performance": 49000,
    "points": 28,
    "libelle": "N2",
    "athlete": "",
    "date": ""
  },
  {
    "id": 224,
    "distance": 3,
    "performance": 50000,
    "points": 26,
    "libelle": "N3",
    "athlete": "",
    "date": ""
  },
  {
    "id": 225,
    "distance": 3,
    "performance": 51000,
    "points": 24,
    "libelle": "N4",
    "athlete": "",
    "date": ""
  },
  {
    "id": 226,
    "distance": 3,
    "performance": 52000,
    "points": 21,
    "libelle": "IR1",
    "athlete": "",
    "date": ""
  },
  {
    "id": 227,
    "distance": 3,
    "performance": 53000,
    "points": 20,
    "libelle": "IR2",
    "athlete": "",
    "date": ""
  },
  {
    "id": 228,
    "distance": 3,
    "performance": 54000,
    "points": 19,
    "libelle": "IR3",
    "athlete": "",
    "date": ""
  },
  {
    "id": 229,
    "distance": 3,
    "performance": 55000,
    "points": 18,
    "libelle": "IR4",
    "athlete": "",
    "date": ""
  },
  {
    "id": 230,
    "distance": 3,
    "performance": 56000,
    "points": 15,
    "libelle": "R1",
    "athlete": "",
    "date": ""
  },
  {
    "id": 231,
    "distance": 3,
    "performance": 57000,
    "points": 14,
    "libelle": "R2",
    "athlete": "",
    "date": ""
  },
  {
    "id": 232,
    "distance": 3,
    "performance": 58000,
    "points": 13,
    "libelle": "R3",
    "athlete": "",
    "date": ""
  },
  {
    "id": 233,
    "distance": 3,
    "performance": 59000,
    "points": 12,
    "libelle": "R4",
    "athlete": "",
    "date": ""
  },
  {
    "id": 234,
    "distance": 3,
    "performance": 60000,
    "points": 11,
    "libelle": "R5",
    "athlete": "",
    "date": ""
  },
  {
    "id": 235,
    "distance": 3,
    "performance": 61000,
    "points": 10,
    "libelle": "R6",
    "athlete": "",
    "date": ""
  },
  {
    "id": 236,
    "distance": 3,
    "performance": 62000,
    "points": 8,
    "libelle": "D1",
    "athlete": "",
    "date": ""
  },
  {
    "id": 237,
    "distance": 3,
    "performance": 63000,
    "points": 7,
    "libelle": "D2",
    "athlete": "",
    "date": ""
  },
  {
    "id": 238,
    "distance": 3,
    "performance": 64000,
    "points": 6,
    "libelle": "D3",
    "athlete": "",
    "date": ""
  },
  {
    "id": 239,
    "distance": 3,
    "performance": 66000,
    "points": 5,
    "libelle": "D4",
    "athlete": "",
    "date": ""
  },
  {
    "id": 240,
    "distance": 3,
    "performance": 67500,
    "points": 4,
    "libelle": "D5",
    "athlete": "",
    "date": ""
  },
  {
    "id": 241,
    "distance": 3,
    "performance": 69000,
    "points": 3,
    "libelle": "D6",
    "athlete": "",
    "date": ""
  },
  {
    "id": 242,
    "distance": 3,
    "performance": 70500,
    "points": 2,
    "libelle": "D7",
    "athlete": "",
    "date": ""
  },
  {
    "id": 243,
    "distance": 3,
    "performance": 100000000,
    "points": 0,
    "libelle": "D8",
    "athlete": "",
    "date": ""
  },
  {
    "id": 244,
    "distance": 5,
    "performance": 74735,
    "points": 40,
    "libelle": "",
    "athlete": "",
    "date": ""
  },
  {
    "id": 245,
    "distance": 5,
    "performance": 75735,
    "points": 40,
    "libelle": "RM",
    "athlete": "Kenenissa Bekele",
    "date": "31/05/2004"
  },
  {
    "id": 246,
    "distance": 5,
    "performance": 77883,
    "points": 40,
    "libelle": "RF",
    "athlete": "Ismail Sghyr",
    "date": "28/07/2000"
  },
  {
    "id": 247,
    "distance": 5,
    "performance": 79000,
    "points": 40,
    "libelle": "IA",
    "athlete": "",
    "date": ""
  },
  {
    "id": 248,
    "distance": 5,
    "performance": 80500,
    "points": 35,
    "libelle": "IB",
    "athlete": "",
    "date": ""
  },
  {
    "id": 249,
    "distance": 5,
    "performance": 82500,
    "points": 30,
    "libelle": "N1",
    "athlete": "",
    "date": ""
  },
  {
    "id": 250,
    "distance": 5,
    "performance": 84000,
    "points": 28,
    "libelle": "N2",
    "athlete": "",
    "date": ""
  },
  {
    "id": 251,
    "distance": 5,
    "performance": 86000,
    "points": 26,
    "libelle": "N3",
    "athlete": "",
    "date": ""
  },
  {
    "id": 252,
    "distance": 5,
    "performance": 88000,
    "points": 24,
    "libelle": "N4",
    "athlete": "",
    "date": ""
  },
  {
    "id": 253,
    "distance": 5,
    "performance": 90000,
    "points": 21,
    "libelle": "IR1",
    "athlete": "",
    "date": ""
  },
  {
    "id": 254,
    "distance": 5,
    "performance": 92000,
    "points": 20,
    "libelle": "IR2",
    "athlete": "",
    "date": ""
  },
  {
    "id": 255,
    "distance": 5,
    "performance": 94000,
    "points": 19,
    "libelle": "IR3",
    "athlete": "",
    "date": ""
  },
  {
    "id": 256,
    "distance": 5,
    "performance": 96000,
    "points": 18,
    "libelle": "IR4",
    "athlete": "",
    "date": ""
  },
  {
    "id": 257,
    "distance": 5,
    "performance": 98000,
    "points": 15,
    "libelle": "R1",
    "athlete": "",
    "date": ""
  },
  {
    "id": 258,
    "distance": 5,
    "performance": 100000,
    "points": 14,
    "libelle": "R2",
    "athlete": "",
    "date": ""
  },
  {
    "id": 259,
    "distance": 5,
    "performance": 102000,
    "points": 13,
    "libelle": "R3",
    "athlete": "",
    "date": ""
  },
  {
    "id": 260,
    "distance": 5,
    "performance": 104000,
    "points": 12,
    "libelle": "R4",
    "athlete": "",
    "date": ""
  },
  {
    "id": 261,
    "distance": 5,
    "performance": 106000,
    "points": 11,
    "libelle": "R5",
    "athlete": "",
    "date": ""
  },
  {
    "id": 262,
    "distance": 5,
    "performance": 108000,
    "points": 10,
    "libelle": "R6",
    "athlete": "",
    "date": ""
  },
  {
    "id": 263,
    "distance": 5,
    "performance": 110000,
    "points": 8,
    "libelle": "D1",
    "athlete": "",
    "date": ""
  },
  {
    "id": 264,
    "distance": 5,
    "performance": 112000,
    "points": 7,
    "libelle": "D2",
    "athlete": "",
    "date": ""
  },
  {
    "id": 265,
    "distance": 5,
    "performance": 115000,
    "points": 6,
    "libelle": "D3",
    "athlete": "",
    "date": ""
  },
  {
    "id": 266,
    "distance": 5,
    "performance": 118000,
    "points": 5,
    "libelle": "D4",
    "athlete": "",
    "date": ""
  },
  {
    "id": 267,
    "distance": 5,
    "performance": 121000,
    "points": 4,
    "libelle": "D5",
    "athlete": "",
    "date": ""
  },
  {
    "id": 268,
    "distance": 5,
    "performance": 126000,
    "points": 3,
    "libelle": "D6",
    "athlete": "",
    "date": ""
  },
  {
    "id": 269,
    "distance": 5,
    "performance": 132000,
    "points": 2,
    "libelle": "D7",
    "athlete": "",
    "date": ""
  },
  {
    "id": 270,
    "distance": 5,
    "performance": 100000000,
    "points": 0,
    "libelle": "D8",
    "athlete": "",
    "date": ""
  },
  {
    "id": 271,
    "distance": 10,
    "performance": 155000,
    "points": 40,
    "libelle": "",
    "athlete": "",
    "date": ""
  },
  {
    "id": 272,
    "distance": 10,
    "performance": 157753,
    "points": 40,
    "libelle": "RM",
    "athlete": "Kenenissa Bekele",
    "date": "26/08/2005"
  },
  {
    "id": 273,
    "distance": 10,
    "performance": 164278,
    "points": 40,
    "libelle": "RF",
    "athlete": "Antonio Martins",
    "date": "04/07/1992"
  },
  {
    "id": 274,
    "distance": 10,
    "performance": 167000,
    "points": 40,
    "libelle": "IA",
    "athlete": "",
    "date": ""
  },
  {
    "id": 275,
    "distance": 10,
    "performance": 169500,
    "points": 35,
    "libelle": "IB",
    "athlete": "",
    "date": ""
  },
  {
    "id": 276,
    "distance": 10,
    "performance": 174000,
    "points": 30,
    "libelle": "N1",
    "athlete": "",
    "date": ""
  },
  {
    "id": 277,
    "distance": 10,
    "performance": 178500,
    "points": 28,
    "libelle": "N2",
    "athlete": "",
    "date": ""
  },
  {
    "id": 278,
    "distance": 10,
    "performance": 183000,
    "points": 26,
    "libelle": "N3",
    "athlete": "",
    "date": ""
  },
  {
    "id": 279,
    "distance": 10,
    "performance": 187500,
    "points": 24,
    "libelle": "N4",
    "athlete": "",
    "date": ""
  },
  {
    "id": 280,
    "distance": 10,
    "performance": 192000,
    "points": 21,
    "libelle": "IR1",
    "athlete": "",
    "date": ""
  },
  {
    "id": 281,
    "distance": 10,
    "performance": 196500,
    "points": 20,
    "libelle": "IR2",
    "athlete": "",
    "date": ""
  },
  {
    "id": 282,
    "distance": 10,
    "performance": 201000,
    "points": 19,
    "libelle": "IR3",
    "athlete": "",
    "date": ""
  },
  {
    "id": 283,
    "distance": 10,
    "performance": 205500,
    "points": 18,
    "libelle": "IR4",
    "athlete": "",
    "date": ""
  },
  {
    "id": 284,
    "distance": 10,
    "performance": 210000,
    "points": 15,
    "libelle": "R1",
    "athlete": "",
    "date": ""
  },
  {
    "id": 285,
    "distance": 10,
    "performance": 214500,
    "points": 14,
    "libelle": "R2",
    "athlete": "",
    "date": ""
  },
  {
    "id": 286,
    "distance": 10,
    "performance": 219000,
    "points": 13,
    "libelle": "R3",
    "athlete": "",
    "date": ""
  },
  {
    "id": 287,
    "distance": 10,
    "performance": 223500,
    "points": 12,
    "libelle": "R4",
    "athlete": "",
    "date": ""
  },
  {
    "id": 288,
    "distance": 10,
    "performance": 228000,
    "points": 11,
    "libelle": "R5",
    "athlete": "",
    "date": ""
  },
  {
    "id": 289,
    "distance": 10,
    "performance": 232500,
    "points": 10,
    "libelle": "R6",
    "athlete": "",
    "date": ""
  },
  {
    "id": 290,
    "distance": 10,
    "performance": 237000,
    "points": 8,
    "libelle": "D1",
    "athlete": "",
    "date": ""
  },
  {
    "id": 291,
    "distance": 10,
    "performance": 243000,
    "points": 7,
    "libelle": "D2",
    "athlete": "",
    "date": ""
  },
  {
    "id": 292,
    "distance": 10,
    "performance": 249000,
    "points": 6,
    "libelle": "D3",
    "athlete": "",
    "date": ""
  },
  {
    "id": 293,
    "distance": 10,
    "performance": 258000,
    "points": 5,
    "libelle": "D4",
    "athlete": "",
    "date": ""
  },
  {
    "id": 294,
    "distance": 10,
    "performance": 270000,
    "points": 4,
    "libelle": "D5",
    "athlete": "",
    "date": ""
  },
  {
    "id": 295,
    "distance": 10,
    "performance": 282000,
    "points": 3,
    "libelle": "D6",
    "athlete": "",
    "date": ""
  },
  {
    "id": 296,
    "distance": 10,
    "performance": 300000,
    "points": 2,
    "libelle": "D7",
    "athlete": "",
    "date": ""
  },
  {
    "id": 297,
    "distance": 10,
    "performance": 100000000,
    "points": 0,
    "libelle": "D8",
    "athlete": "",
    "date": ""
  },
  {
    "id": 298,
    "distance": 15,
    "performance": 243300,
    "points": 40,
    "libelle": "",
    "athlete": "",
    "date": ""
  },
  {
    "id": 299,
    "distance": 15,
    "performance": 247300,
    "points": 40,
    "libelle": "RM",
    "athlete": "Leonard Komon",
    "date": "21/10/2010"
  },
  {
    "id": 300,
    "distance": 15,
    "performance": 240000,
    "points": 40,
    "libelle": "RF",
    "athlete": "inconnu",
    "date": "inconnue"
  },
  {
    "id": 301,
    "distance": 15,
    "performance": 261000,
    "points": 40,
    "libelle": "IA",
    "athlete": "",
    "date": ""
  },
  {
    "id": 302,
    "distance": 15,
    "performance": 264000,
    "points": 35,
    "libelle": "IB",
    "athlete": "",
    "date": ""
  },
  {
    "id": 303,
    "distance": 15,
    "performance": 267000,
    "points": 30,
    "libelle": "N1",
    "athlete": "",
    "date": ""
  },
  {
    "id": 304,
    "distance": 15,
    "performance": 274000,
    "points": 28,
    "libelle": "N2",
    "athlete": "",
    "date": ""
  },
  {
    "id": 305,
    "distance": 15,
    "performance": 281000,
    "points": 26,
    "libelle": "N3",
    "athlete": "",
    "date": ""
  },
  {
    "id": 306,
    "distance": 15,
    "performance": 288000,
    "points": 24,
    "libelle": "N4",
    "athlete": "",
    "date": ""
  },
  {
    "id": 307,
    "distance": 15,
    "performance": 295000,
    "points": 21,
    "libelle": "IR1",
    "athlete": "",
    "date": ""
  },
  {
    "id": 308,
    "distance": 15,
    "performance": 302000,
    "points": 20,
    "libelle": "IR2",
    "athlete": "",
    "date": ""
  },
  {
    "id": 309,
    "distance": 15,
    "performance": 309000,
    "points": 19,
    "libelle": "IR3",
    "athlete": "",
    "date": ""
  },
  {
    "id": 310,
    "distance": 15,
    "performance": 316000,
    "points": 18,
    "libelle": "IR4",
    "athlete": "",
    "date": ""
  },
  {
    "id": 311,
    "distance": 15,
    "performance": 323000,
    "points": 15,
    "libelle": "R1",
    "athlete": "",
    "date": ""
  },
  {
    "id": 312,
    "distance": 15,
    "performance": 330000,
    "points": 14,
    "libelle": "R2",
    "athlete": "",
    "date": ""
  },
  {
    "id": 313,
    "distance": 15,
    "performance": 337000,
    "points": 13,
    "libelle": "R3",
    "athlete": "",
    "date": ""
  },
  {
    "id": 314,
    "distance": 15,
    "performance": 344000,
    "points": 12,
    "libelle": "R4",
    "athlete": "",
    "date": ""
  },
  {
    "id": 315,
    "distance": 15,
    "performance": 351000,
    "points": 11,
    "libelle": "R5",
    "athlete": "",
    "date": ""
  },
  {
    "id": 316,
    "distance": 15,
    "performance": 358500,
    "points": 10,
    "libelle": "R6",
    "athlete": "",
    "date": ""
  },
  {
    "id": 317,
    "distance": 15,
    "performance": 366000,
    "points": 8,
    "libelle": "D1",
    "athlete": "",
    "date": ""
  },
  {
    "id": 318,
    "distance": 15,
    "performance": 378000,
    "points": 7,
    "libelle": "D2",
    "athlete": "",
    "date": ""
  },
  {
    "id": 319,
    "distance": 15,
    "performance": 390000,
    "points": 6,
    "libelle": "D3",
    "athlete": "",
    "date": ""
  },
  {
    "id": 320,
    "distance": 15,
    "performance": 402000,
    "points": 5,
    "libelle": "D4",
    "athlete": "",
    "date": ""
  },
  {
    "id": 321,
    "distance": 15,
    "performance": 426000,
    "points": 4,
    "libelle": "D5",
    "athlete": "",
    "date": ""
  },
  {
    "id": 322,
    "distance": 15,
    "performance": 444000,
    "points": 3,
    "libelle": "D6",
    "athlete": "",
    "date": ""
  },
  {
    "id": 323,
    "distance": 15,
    "performance": 468000,
    "points": 2,
    "libelle": "D7",
    "athlete": "",
    "date": ""
  },
  {
    "id": 324,
    "distance": 15,
    "performance": 100000000,
    "points": 0,
    "libelle": "D8",
    "athlete": "",
    "date": ""
  },
  {
    "id": 325,
    "distance": 20,
    "performance": 330000,
    "points": 40,
    "libelle": "",
    "athlete": "",
    "date": ""
  },
  {
    "id": 326,
    "distance": 20,
    "performance": 338598,
    "points": 40,
    "libelle": "RM",
    "athlete": "Haile Gebreselassie",
    "date": "17/06/2007"
  },
  {
    "id": 327,
    "distance": 20,
    "performance": 349804,
    "points": 40,
    "libelle": "RF",
    "athlete": "Bertrand Itsweire",
    "date": "31/03/1990"
  },
  {
    "id": 328,
    "distance": 20,
    "performance": 351000,
    "points": 40,
    "libelle": "IA",
    "athlete": "",
    "date": ""
  },
  {
    "id": 329,
    "distance": 20,
    "performance": 355500,
    "points": 35,
    "libelle": "IB",
    "athlete": "",
    "date": ""
  },
  {
    "id": 330,
    "distance": 20,
    "performance": 366000,
    "points": 30,
    "libelle": "N1",
    "athlete": "",
    "date": ""
  },
  {
    "id": 331,
    "distance": 20,
    "performance": 373500,
    "points": 28,
    "libelle": "N2",
    "athlete": "",
    "date": ""
  },
  {
    "id": 332,
    "distance": 20,
    "performance": 381000,
    "points": 26,
    "libelle": "N3",
    "athlete": "",
    "date": ""
  },
  {
    "id": 333,
    "distance": 20,
    "performance": 390000,
    "points": 24,
    "libelle": "N4",
    "athlete": "",
    "date": ""
  },
  {
    "id": 334,
    "distance": 20,
    "performance": 402000,
    "points": 21,
    "libelle": "IR1",
    "athlete": "",
    "date": ""
  },
  {
    "id": 335,
    "distance": 20,
    "performance": 411000,
    "points": 20,
    "libelle": "IR2",
    "athlete": "",
    "date": ""
  },
  {
    "id": 336,
    "distance": 20,
    "performance": 420000,
    "points": 19,
    "libelle": "IR3",
    "athlete": "",
    "date": ""
  },
  {
    "id": 337,
    "distance": 20,
    "performance": 429000,
    "points": 18,
    "libelle": "IR4",
    "athlete": "",
    "date": ""
  },
  {
    "id": 338,
    "distance": 20,
    "performance": 438000,
    "points": 15,
    "libelle": "R1",
    "athlete": "",
    "date": ""
  },
  {
    "id": 339,
    "distance": 20,
    "performance": 447000,
    "points": 14,
    "libelle": "R2",
    "athlete": "",
    "date": ""
  },
  {
    "id": 340,
    "distance": 20,
    "performance": 456000,
    "points": 13,
    "libelle": "R3",
    "athlete": "",
    "date": ""
  },
  {
    "id": 341,
    "distance": 20,
    "performance": 468000,
    "points": 12,
    "libelle": "R4",
    "athlete": "",
    "date": ""
  },
  {
    "id": 342,
    "distance": 20,
    "performance": 477000,
    "points": 11,
    "libelle": "R5",
    "athlete": "",
    "date": ""
  },
  {
    "id": 343,
    "distance": 20,
    "performance": 495000,
    "points": 10,
    "libelle": "R6",
    "athlete": "",
    "date": ""
  },
  {
    "id": 344,
    "distance": 20,
    "performance": 513000,
    "points": 8,
    "libelle": "D1",
    "athlete": "",
    "date": ""
  },
  {
    "id": 345,
    "distance": 20,
    "performance": 534000,
    "points": 7,
    "libelle": "D2",
    "athlete": "",
    "date": ""
  },
  {
    "id": 346,
    "distance": 20,
    "performance": 552000,
    "points": 6,
    "libelle": "D3",
    "athlete": "",
    "date": ""
  },
  {
    "id": 347,
    "distance": 20,
    "performance": 576000,
    "points": 5,
    "libelle": "D4",
    "athlete": "",
    "date": ""
  },
  {
    "id": 348,
    "distance": 20,
    "performance": 600000,
    "points": 4,
    "libelle": "D5",
    "athlete": "",
    "date": ""
  },
  {
    "id": 349,
    "distance": 20,
    "performance": 630000,
    "points": 3,
    "libelle": "D6",
    "athlete": "",
    "date": ""
  },
  {
    "id": 350,
    "distance": 20,
    "performance": 660000,
    "points": 2,
    "libelle": "D7",
    "athlete": "",
    "date": ""
  },
  {
    "id": 351,
    "distance": 20,
    "performance": 100000000,
    "points": 0,
    "libelle": "D8",
    "athlete": "",
    "date": ""
  },
  {
    "id": 352,
    "distance": 21.1,
    "performance": 340000,
    "points": 40,
    "libelle": "",
    "athlete": "",
    "date": ""
  },
  {
    "id": 353,
    "distance": 21.1,
    "performance": 350300,
    "points": 40,
    "libelle": "RM",
    "athlete": "Zersenay Tadesse",
    "date": "21/03/2010"
  },
  {
    "id": 354,
    "distance": 21.1,
    "performance": 364600,
    "points": 40,
    "libelle": "RF",
    "athlete": "Abdellatif Meftah",
    "date": "04/09/2010"
  },
  {
    "id": 355,
    "distance": 21.1,
    "performance": 369000,
    "points": 40,
    "libelle": "IA",
    "athlete": "",
    "date": ""
  },
  {
    "id": 356,
    "distance": 21.1,
    "performance": 373500,
    "points": 35,
    "libelle": "IB",
    "athlete": "",
    "date": ""
  },
  {
    "id": 357,
    "distance": 21.1,
    "performance": 384000,
    "points": 30,
    "libelle": "N1",
    "athlete": "",
    "date": ""
  },
  {
    "id": 358,
    "distance": 21.1,
    "performance": 393000,
    "points": 28,
    "libelle": "N2",
    "athlete": "",
    "date": ""
  },
  {
    "id": 359,
    "distance": 21.1,
    "performance": 402000,
    "points": 26,
    "libelle": "N3",
    "athlete": "",
    "date": ""
  },
  {
    "id": 360,
    "distance": 21.1,
    "performance": 411000,
    "points": 24,
    "libelle": "N4",
    "athlete": "",
    "date": ""
  },
  {
    "id": 361,
    "distance": 21.1,
    "performance": 423000,
    "points": 21,
    "libelle": "IR1",
    "athlete": "",
    "date": ""
  },
  {
    "id": 362,
    "distance": 21.1,
    "performance": 435000,
    "points": 20,
    "libelle": "IR2",
    "athlete": "",
    "date": ""
  },
  {
    "id": 363,
    "distance": 21.1,
    "performance": 444000,
    "points": 19,
    "libelle": "IR3",
    "athlete": "",
    "date": ""
  },
  {
    "id": 364,
    "distance": 21.1,
    "performance": 453000,
    "points": 18,
    "libelle": "IR4",
    "athlete": "",
    "date": ""
  },
  {
    "id": 365,
    "distance": 21.1,
    "performance": 465000,
    "points": 15,
    "libelle": "R1",
    "athlete": "",
    "date": ""
  },
  {
    "id": 366,
    "distance": 21.1,
    "performance": 474000,
    "points": 14,
    "libelle": "R2",
    "athlete": "",
    "date": ""
  },
  {
    "id": 367,
    "distance": 21.1,
    "performance": 483000,
    "points": 13,
    "libelle": "R3",
    "athlete": "",
    "date": ""
  },
  {
    "id": 368,
    "distance": 21.1,
    "performance": 495000,
    "points": 12,
    "libelle": "R4",
    "athlete": "",
    "date": ""
  },
  {
    "id": 369,
    "distance": 21.1,
    "performance": 504000,
    "points": 11,
    "libelle": "R5",
    "athlete": "",
    "date": ""
  },
  {
    "id": 370,
    "distance": 21.1,
    "performance": 522000,
    "points": 10,
    "libelle": "R6",
    "athlete": "",
    "date": ""
  },
  {
    "id": 371,
    "distance": 21.1,
    "performance": 540000,
    "points": 8,
    "libelle": "D1",
    "athlete": "",
    "date": ""
  },
  {
    "id": 372,
    "distance": 21.1,
    "performance": 564000,
    "points": 7,
    "libelle": "D2",
    "athlete": "",
    "date": ""
  },
  {
    "id": 373,
    "distance": 21.1,
    "performance": 582000,
    "points": 6,
    "libelle": "D3",
    "athlete": "",
    "date": ""
  },
  {
    "id": 374,
    "distance": 21.1,
    "performance": 606000,
    "points": 5,
    "libelle": "D4",
    "athlete": "",
    "date": ""
  },
  {
    "id": 375,
    "distance": 21.1,
    "performance": 630000,
    "points": 4,
    "libelle": "D5",
    "athlete": "",
    "date": ""
  },
  {
    "id": 376,
    "distance": 21.1,
    "performance": 660000,
    "points": 3,
    "libelle": "D6",
    "athlete": "",
    "date": ""
  },
  {
    "id": 377,
    "distance": 21.1,
    "performance": 690000,
    "points": 2,
    "libelle": "D7",
    "athlete": "",
    "date": ""
  },
  {
    "id": 378,
    "distance": 21.1,
    "performance": 100000000,
    "points": 0,
    "libelle": "D8",
    "athlete": "",
    "date": ""
  },
  {
    "id": 379,
    "distance": 42.2,
    "performance": 730000,
    "points": 40,
    "libelle": "",
    "athlete": "",
    "date": ""
  },
  {
    "id": 380,
    "distance": 42.2,
    "performance": 737700,
    "points": 40,
    "libelle": "RM",
    "athlete": "Dennis Kimetto",
    "date": "28/09/2014"
  },
  {
    "id": 381,
    "distance": 42.2,
    "performance": 759600,
    "points": 40,
    "libelle": "RF",
    "athlete": "Benoit Z",
    "date": "06/04/2003"
  },
  {
    "id": 382,
    "distance": 42.2,
    "performance": 780000,
    "points": 40,
    "libelle": "IA",
    "athlete": "",
    "date": ""
  },
  {
    "id": 383,
    "distance": 42.2,
    "performance": 795000,
    "points": 35,
    "libelle": "IB",
    "athlete": "",
    "date": ""
  },
  {
    "id": 384,
    "distance": 42.2,
    "performance": 810000,
    "points": 30,
    "libelle": "N1",
    "athlete": "",
    "date": ""
  },
  {
    "id": 385,
    "distance": 42.2,
    "performance": 840000,
    "points": 28,
    "libelle": "N2",
    "athlete": "",
    "date": ""
  },
  {
    "id": 386,
    "distance": 42.2,
    "performance": 864000,
    "points": 26,
    "libelle": "N3",
    "athlete": "",
    "date": ""
  },
  {
    "id": 387,
    "distance": 42.2,
    "performance": 888000,
    "points": 24,
    "libelle": "N4",
    "athlete": "",
    "date": ""
  },
  {
    "id": 388,
    "distance": 42.2,
    "performance": 912000,
    "points": 21,
    "libelle": "IR1",
    "athlete": "",
    "date": ""
  },
  {
    "id": 389,
    "distance": 42.2,
    "performance": 936000,
    "points": 20,
    "libelle": "IR2",
    "athlete": "",
    "date": ""
  },
  {
    "id": 390,
    "distance": 42.2,
    "performance": 960000,
    "points": 19,
    "libelle": "IR3",
    "athlete": "",
    "date": ""
  },
  {
    "id": 391,
    "distance": 42.2,
    "performance": 984000,
    "points": 18,
    "libelle": "IR4",
    "athlete": "",
    "date": ""
  },
  {
    "id": 392,
    "distance": 42.2,
    "performance": 1008000,
    "points": 15,
    "libelle": "R1",
    "athlete": "",
    "date": ""
  },
  {
    "id": 393,
    "distance": 42.2,
    "performance": 1038000,
    "points": 14,
    "libelle": "R2",
    "athlete": "",
    "date": ""
  },
  {
    "id": 394,
    "distance": 42.2,
    "performance": 1068000,
    "points": 13,
    "libelle": "R3",
    "athlete": "",
    "date": ""
  },
  {
    "id": 395,
    "distance": 42.2,
    "performance": 1098000,
    "points": 12,
    "libelle": "R4",
    "athlete": "",
    "date": ""
  },
  {
    "id": 396,
    "distance": 42.2,
    "performance": 1128000,
    "points": 11,
    "libelle": "R5",
    "athlete": "",
    "date": ""
  },
  {
    "id": 397,
    "distance": 42.2,
    "performance": 1164000,
    "points": 10,
    "libelle": "R6",
    "athlete": "",
    "date": ""
  },
  {
    "id": 398,
    "distance": 42.2,
    "performance": 1200000,
    "points": 8,
    "libelle": "D1",
    "athlete": "",
    "date": ""
  },
  {
    "id": 399,
    "distance": 42.2,
    "performance": 1236000,
    "points": 7,
    "libelle": "D2",
    "athlete": "",
    "date": ""
  },
  {
    "id": 400,
    "distance": 42.2,
    "performance": 1284000,
    "points": 6,
    "libelle": "D3",
    "athlete": "",
    "date": ""
  },
  {
    "id": 401,
    "distance": 42.2,
    "performance": 1332000,
    "points": 5,
    "libelle": "D4",
    "athlete": "",
    "date": ""
  },
  {
    "id": 402,
    "distance": 42.2,
    "performance": 1380000,
    "points": 4,
    "libelle": "D5",
    "athlete": "",
    "date": ""
  },
  {
    "id": 403,
    "distance": 42.2,
    "performance": 1440000,
    "points": 3,
    "libelle": "D6",
    "athlete": "",
    "date": ""
  },
  {
    "id": 404,
    "distance": 42.2,
    "performance": 1500000,
    "points": 2,
    "libelle": "D7",
    "athlete": "",
    "date": ""
  },
  {
    "id": 405,
    "distance": 42.2,
    "performance": 2500000,
    "points": 0,
    "libelle": "D8",
    "athlete": "",
    "date": ""
  },
  {
    "id": 406,
    "distance": 100,
    "performance": "2201300",
    "points": 40,
    "libelle": "",
    "athlete": "",
    "date": ""
  },
  {
    "id": 407,
    "distance": 100,
    "performance": 2241300,
    "points": 40,
    "libelle": "RM",
    "athlete": "Takahiro Sunada",
    "date": "21/06/1998"
  },
  {
    "id": 408,
    "distance": 100,
    "performance": 2299500,
    "points": 40,
    "libelle": "RF",
    "athlete": "Pascal Fetizon",
    "date": "10/07/1999"
  },
  {
    "id": 409,
    "distance": 100,
    "performance": 2370000,
    "points": 40,
    "libelle": "IA",
    "athlete": "",
    "date": ""
  },
  {
    "id": 410,
    "distance": 100,
    "performance": 2478000,
    "points": 35,
    "libelle": "IB",
    "athlete": "",
    "date": ""
  },
  {
    "id": 411,
    "distance": 100,
    "performance": 2580000,
    "points": 30,
    "libelle": "N1",
    "athlete": "",
    "date": ""
  },
  {
    "id": 412,
    "distance": 100,
    "performance": 2670000,
    "points": 28,
    "libelle": "N2",
    "athlete": "",
    "date": ""
  },
  {
    "id": 413,
    "distance": 100,
    "performance": 2760000,
    "points": 26,
    "libelle": "N3",
    "athlete": "",
    "date": ""
  },
  {
    "id": 414,
    "distance": 100,
    "performance": 2850000,
    "points": 24,
    "libelle": "N4",
    "athlete": "",
    "date": ""
  },
  {
    "id": 415,
    "distance": 100,
    "performance": 2940000,
    "points": 21,
    "libelle": "IR1",
    "athlete": "",
    "date": ""
  },
  {
    "id": 416,
    "distance": 100,
    "performance": 3030000,
    "points": 20,
    "libelle": "IR2",
    "athlete": "",
    "date": ""
  },
  {
    "id": 417,
    "distance": 100,
    "performance": 3120000,
    "points": 19,
    "libelle": "IR3",
    "athlete": "",
    "date": ""
  },
  {
    "id": 418,
    "distance": 100,
    "performance": 3180000,
    "points": 18,
    "libelle": "IR4",
    "athlete": "",
    "date": ""
  },
  {
    "id": 419,
    "distance": 100,
    "performance": 3240000,
    "points": 15,
    "libelle": "R1",
    "athlete": "",
    "date": ""
  },
  {
    "id": 420,
    "distance": 100,
    "performance": 3300000,
    "points": 14,
    "libelle": "R2",
    "athlete": "",
    "date": ""
  },
  {
    "id": 421,
    "distance": 100,
    "performance": 3360000,
    "points": 13,
    "libelle": "R3",
    "athlete": "",
    "date": ""
  },
  {
    "id": 422,
    "distance": 100,
    "performance": 3420000,
    "points": 12,
    "libelle": "R4",
    "athlete": "",
    "date": ""
  },
  {
    "id": 423,
    "distance": 100,
    "performance": 3480000,
    "points": 11,
    "libelle": "R5",
    "athlete": "",
    "date": ""
  },
  {
    "id": 424,
    "distance": 100,
    "performance": 3540000,
    "points": 10,
    "libelle": "R6",
    "athlete": "",
    "date": ""
  },
  {
    "id": 425,
    "distance": 100,
    "performance": 3600000,
    "points": 8,
    "libelle": "D1",
    "athlete": "",
    "date": ""
  },
  {
    "id": 426,
    "distance": 100,
    "performance": 3720000,
    "points": 7,
    "libelle": "D2",
    "athlete": "",
    "date": ""
  },
  {
    "id": 427,
    "distance": 100,
    "performance": 3840000,
    "points": 6,
    "libelle": "D3",
    "athlete": "",
    "date": ""
  },
  {
    "id": 428,
    "distance": 100,
    "performance": 3960000,
    "points": 5,
    "libelle": "D4",
    "athlete": "",
    "date": ""
  },
  {
    "id": 429,
    "distance": 100,
    "performance": 4080000,
    "points": 4,
    "libelle": "D5",
    "athlete": "",
    "date": ""
  },
  {
    "id": 430,
    "distance": 100,
    "performance": 4200000,
    "points": 3,
    "libelle": "D6",
    "athlete": "",
    "date": ""
  },
  {
    "id": 431,
    "distance": 100,
    "performance": 4320000,
    "points": 2,
    "libelle": "D7",
    "athlete": "",
    "date": ""
  },
  {
    "id": 432,
    "distance": 100,
    "performance": 100000000,
    "points": 0,
    "libelle": "D8",
    "athlete": "",
    "date": ""
 }]


}