<?xml version="1.0" encoding="utf-8"?>
<!-- Generator: Adobe Illustrator 15.0.0, SVG Export Plug-In . SVG Version: 6.00 Build 0)  -->
<!DOCTYPE svg PUBLIC "-//W3C//DTD SVG 1.1//EN" "http://www.w3.org/Graphics/SVG/1.1/DTD/svg11.dtd">
<svg version="1.1"
	 id="Calque_1" xmlns:rdf="http://www.w3.org/1999/02/22-rdf-syntax-ns#" xmlns:svg="http://www.w3.org/2000/svg" xmlns:inkscape="http://www.inkscape.org/namespaces/inkscape" sodipodi:docname="pastille_autre.svg" xmlns:dc="http://purl.org/dc/elements/1.1/" inkscape:version="0.92.3 (unknown)" xmlns:sodipodi="http://sodipodi.sourceforge.net/DTD/sodipodi-0.dtd" xmlns:cc="http://creativecommons.org/ns#"
	 xmlns="http://www.w3.org/2000/svg" xmlns:xlink="http://www.w3.org/1999/xlink" x="0px" y="0px" width="48.382px"
	 height="48.382px" viewBox="0 0 48.382 48.382" enable-background="new 0 0 48.382 48.382" xml:space="preserve">
<sodipodi:namedview  fit-margin-top="0" id="namedview9" showgrid="false" inkscape:window-y="24" pagecolor="#ffffff" borderopacity="1" fit-margin-left="0" objecttolerance="10" inkscape:window-maximized="0" inkscape:window-width="988" fit-margin-right="0" bordercolor="#666666" inkscape:zoom="8.9702927" inkscape:cx="23.439204" inkscape:cy="28.656043" fit-margin-bottom="0" inkscape:window-height="716" inkscape:current-layer="Calque_1" gridtolerance="10" inkscape:pageopacity="0" guidetolerance="10" inkscape:window-x="75" inkscape:pageshadow="2">
	</sodipodi:namedview>
<g id="g6" transform="translate(-273.15699,-396.69001)">
</g>
<path id="path818" inkscape:connector-curvature="0" fill="none" stroke="#90B7B7" stroke-width="0.631" stroke-opacity="0" d="
	M18.651,47.448c-6.595-1.665-13.008-6.922-16.084-13.182c-1.55-3.155-1.728-4.196-1.728-10.137c0-6.217,0.123-6.856,2.007-10.461
	c2.569-4.914,7.877-9.81,12.657-11.674c5.026-1.96,12.321-1.956,17.362,0.009c4.779,1.863,10.34,7.011,12.779,11.829
	c1.709,3.375,1.861,4.215,1.861,10.297c0,5.986-0.171,6.968-1.777,10.241c-3.83,7.8-11.579,12.976-20.109,13.431
	C23.089,47.935,19.954,47.777,18.651,47.448L18.651,47.448z M26.378,40.525c0.694-0.693,1.262-1.828,1.262-2.522
	c0-1.624-2.159-3.784-3.784-3.784c-0.693,0-1.829,0.568-2.522,1.262c-0.693,0.693-1.261,1.828-1.261,2.522s0.568,1.829,1.261,2.522
	c0.694,0.693,1.829,1.262,2.522,1.262C24.55,41.787,25.685,41.218,26.378,40.525z M26.028,31.556
	c0.54-0.771,0.981-1.845,0.981-2.387c0-0.541,1.583-2.535,3.518-4.432c1.934-1.896,3.921-4.213,4.414-5.149
	c1.256-2.383,1.113-5.502-0.36-7.92c-4.923-8.074-20.104-5.733-21.81,3.362c-0.868,4.626,4.267,6.446,6.048,2.144
	c0.439-1.059,1.347-2.624,2.018-3.477c2.374-3.017,8.065-1.313,8.065,2.415c0,0.903-1.198,2.613-3.203,4.572
	c-3.825,3.738-4.995,5.786-4.995,8.743C20.704,32.863,24.148,34.24,26.028,31.556z"/>
<circle fill="#EC6C14" cx="24.191" cy="24.191" r="24.191"/>
<g id="xm4shc_1_">
	<g>
		<path fill-rule="evenodd" clip-rule="evenodd" fill="#FFFFFF" d="M27.798,8.093c0.129-0.377,1.016-0.159,0.82,0.328
			C28.21,8.446,28.111,8.163,27.798,8.093z"/>
		<path fill-rule="evenodd" clip-rule="evenodd" fill="#FFFFFF" d="M31.082,10.063c0.162-0.259,1.174,0.018,1.148,0.492
			C31.726,10.513,31.492,10.199,31.082,10.063z"/>
		<path fill-rule="evenodd" clip-rule="evenodd" fill="#FFFFFF" d="M25.664,39.777c0,0.82,0,1.641,0,2.461c-3.119,0-6.238,0-9.358,0
			c-0.263-0.559-0.263-2.068,0-2.627C19.406,39.685,22.823,39.443,25.664,39.777z"/>
		<path fill-rule="evenodd" clip-rule="evenodd" fill="#FFFFFF" d="M28.947,7.271c0.295,0.417,0.678,0.746,0.656,1.479
			c1.18,0.135,2.109,0.516,3.119,0.82c0.609,0.403-0.004,1.094,0.328,1.642c0.693,1.142,2.752,0.828,2.955,2.135
			c0.174,1.117-1.742,3.489-2.463,4.76c-0.924,1.63-2.367,3.407-2.625,4.597c-0.564,2.597,0.59,4.992-0.166,7.388
			c-0.5,1.588-2.254,3.08-3.117,4.268c-1.189,1.633-1.992,3.113-3.121,4.268c-2.462,0-4.924,0-7.387,0
			c0.029-4.293-0.269-8.914,1.806-11.162c-0.472-0.023-1.279,0.455-1.641,0c-1.146-0.607-1.279-2.225-1.971-3.284
			c0.061-5.106-2.722-9.636-2.955-14.445c1.005-1.349,3.641-1.065,4.433-2.627c0.875,0,1.751,0,2.627,0
			c0.693,0.092,0.558-0.646,1.148-0.657c2.262,0.29,4.259-1.232,5.582,0.657C27.146,7.104,28.177,7.057,28.947,7.271z M20.738,7.271
			c-0.999,3.16-2.202,6.99-2.626,10.179c1.541-3.331,4.082-6.53,5.253-9.686C22.392,7.698,21.817,7.233,20.738,7.271z M24.843,7.437
			c-3.012,4.978-6.022,9.957-8.701,15.267c1.46,0.948,2.945,1.869,4.596,2.626c1.071-2.304-0.215-7.407,2.463-7.715
			c3.791-0.437,1.348,6.902,1.642,10.178c0.594,0.227,0.92,0.721,1.641,0.82c2.988-5,5.953-10.025,8.701-15.266
			C31.761,11.354,28.394,9.301,24.843,7.437z M16.635,8.258c0.109,3.447-0.219,7.332,0.164,10.506
			c0.669-3.713,2.198-7.429,2.627-10.834C18.497,8.04,17.065,7.648,16.635,8.258z M28.619,8.421c0.195-0.487-0.691-0.705-0.82-0.328
			C28.111,8.163,28.21,8.446,28.619,8.421z M15.485,9.078c-0.693,0.401-1.74,0.448-2.463,0.82c0.836,3.489,1.559,7.089,2.792,10.179
			C15.602,16.514,16.243,12.096,15.485,9.078z M32.23,10.556c0.025-0.475-0.986-0.751-1.148-0.492
			C31.492,10.199,31.726,10.513,32.23,10.556z M17.62,24.509c-0.579-0.133-0.762-0.661-1.478-0.656
			C16.082,24.521,17.456,24.608,17.62,24.509z M17.948,25.658c-0.237-0.363-0.978-0.227-1.313-0.492
			C16.339,25.927,18.516,25.687,17.948,25.658z M17.455,26.808c0.628,0.025,1.196-0.01,1.478-0.33
			C18.479,26.626,17.392,26.142,17.455,26.808z"/>
	</g>
</g>
</svg>
