<?xml version="1.0" encoding="utf-8"?>
<!-- Generator: Adobe Illustrator 15.0.0, SVG Export Plug-In . SVG Version: 6.00 Build 0)  -->
<!DOCTYPE svg PUBLIC "-//W3C//DTD SVG 1.1//EN" "http://www.w3.org/Graphics/SVG/1.1/DTD/svg11.dtd">
<svg version="1.1"
	 id="Calque_1" xmlns:rdf="http://www.w3.org/1999/02/22-rdf-syntax-ns#" xmlns:svg="http://www.w3.org/2000/svg" xmlns:inkscape="http://www.inkscape.org/namespaces/inkscape" sodipodi:docname="pastille_autre.svg" xmlns:dc="http://purl.org/dc/elements/1.1/" inkscape:version="0.92.3 (unknown)" xmlns:sodipodi="http://sodipodi.sourceforge.net/DTD/sodipodi-0.dtd" xmlns:cc="http://creativecommons.org/ns#"
	 xmlns="http://www.w3.org/2000/svg" xmlns:xlink="http://www.w3.org/1999/xlink" x="0px" y="0px" width="48.382px"
	 height="48.382px" viewBox="0 0 48.382 48.382" enable-background="new 0 0 48.382 48.382" xml:space="preserve">
<sodipodi:namedview  fit-margin-top="0" id="namedview9" showgrid="false" inkscape:window-y="24" pagecolor="#ffffff" borderopacity="1" fit-margin-left="0" objecttolerance="10" inkscape:window-maximized="0" inkscape:window-width="988" fit-margin-right="0" bordercolor="#666666" inkscape:zoom="8.9702927" inkscape:cx="23.439204" inkscape:cy="28.656043" fit-margin-bottom="0" inkscape:window-height="716" inkscape:current-layer="Calque_1" gridtolerance="10" inkscape:pageopacity="0" guidetolerance="10" inkscape:window-x="75" inkscape:pageshadow="2">
	</sodipodi:namedview>
<g id="g6" transform="translate(-273.15699,-396.69001)">
</g>
<path id="path818" inkscape:connector-curvature="0" fill="none" stroke="#90B7B7" stroke-width="0.631" stroke-opacity="0" d="
	M18.651,47.448c-6.595-1.665-13.008-6.922-16.084-13.182c-1.55-3.155-1.728-4.196-1.728-10.137c0-6.217,0.123-6.856,2.007-10.461
	c2.569-4.914,7.877-9.81,12.657-11.674c5.026-1.96,12.321-1.956,17.362,0.009c4.779,1.863,10.34,7.011,12.779,11.829
	c1.709,3.375,1.861,4.215,1.861,10.297c0,5.986-0.171,6.968-1.777,10.241c-3.83,7.8-11.579,12.976-20.109,13.431
	C23.089,47.935,19.954,47.777,18.651,47.448L18.651,47.448z M26.378,40.525c0.694-0.693,1.262-1.828,1.262-2.522
	c0-1.624-2.159-3.784-3.784-3.784c-0.693,0-1.829,0.568-2.522,1.262c-0.693,0.693-1.261,1.828-1.261,2.522s0.568,1.829,1.261,2.522
	c0.694,0.693,1.829,1.262,2.522,1.262C24.55,41.787,25.685,41.218,26.378,40.525z M26.028,31.556
	c0.54-0.771,0.981-1.845,0.981-2.387c0-0.541,1.583-2.535,3.518-4.432c1.934-1.896,3.921-4.213,4.414-5.149
	c1.256-2.383,1.113-5.502-0.36-7.92c-4.923-8.074-20.104-5.733-21.81,3.362c-0.868,4.626,4.267,6.446,6.048,2.144
	c0.439-1.059,1.347-2.624,2.018-3.477c2.374-3.017,8.065-1.313,8.065,2.415c0,0.903-1.198,2.613-3.203,4.572
	c-3.825,3.738-4.995,5.786-4.995,8.743C20.704,32.863,24.148,34.24,26.028,31.556z"/>
<circle fill="#E5332A" cx="24.191" cy="24.191" r="24.191"/>
<g id="GJloJg_1_">
	<g>
		<path fill-rule="evenodd" clip-rule="evenodd" fill="#FFFFFF" d="M39.498,20.632c0,0.02,0,0.041,0,0.061
			c-2.536,2.486-5.047,4.998-7.534,7.533c0.65,3.416,1.174,6.959,1.794,10.404c-3.201-1.543-6.3-3.186-9.446-4.783
			c-3.212,1.572-6.312,3.254-9.447,4.902c0.411-3.355,1.059-6.992,1.614-10.402c-2.417-2.627-5.062-5.025-7.594-7.535
			c0-0.02,0-0.039,0-0.061c3.511-0.514,6.921-1.129,10.463-1.613c1.65-3.113,3.122-6.406,4.784-9.508
			c1.671,3.094,3.233,6.293,4.844,9.447C32.517,19.562,36.019,20.085,39.498,20.632z"/>
	</g>
</g>
</svg>
