<?xml version="1.0" encoding="UTF-8" standalone="no"?>
<!-- Generator: Adobe Illustrator 15.0.0, SVG Export Plug-In . SVG Version: 6.00 Build 0)  -->

<svg
   xmlns:dc="http://purl.org/dc/elements/1.1/"
   xmlns:cc="http://creativecommons.org/ns#"
   xmlns:rdf="http://www.w3.org/1999/02/22-rdf-syntax-ns#"
   xmlns:svg="http://www.w3.org/2000/svg"
   xmlns="http://www.w3.org/2000/svg"
   xmlns:sodipodi="http://sodipodi.sourceforge.net/DTD/sodipodi-0.dtd"
   xmlns:inkscape="http://www.inkscape.org/namespaces/inkscape"
   version="1.1"
   id="Calque_1"
   x="0px"
   y="0px"
   width="48.382"
   height="48.382"
   viewBox="0 0 48.381998 48.381999"
   enable-background="new 0 0 595.28 841.89"
   xml:space="preserve"
   sodipodi:docname="PASTILLE VIDE GRENIER.svg"
   inkscape:version="0.92.3 (2405546, 2018-03-11)"><metadata
   id="metadata60"><rdf:RDF><cc:Work
       rdf:about=""><dc:format>image/svg+xml</dc:format><dc:type
         rdf:resource="http://purl.org/dc/dcmitype/StillImage" /><dc:title></dc:title></cc:Work></rdf:RDF></metadata><defs
   id="defs58" /><sodipodi:namedview
   pagecolor="#ffffff"
   bordercolor="#666666"
   borderopacity="1"
   objecttolerance="10"
   gridtolerance="10"
   guidetolerance="10"
   inkscape:pageopacity="0"
   inkscape:pageshadow="2"
   inkscape:window-width="756"
   inkscape:window-height="480"
   id="namedview56"
   showgrid="false"
   fit-margin-top="0"
   fit-margin-left="0"
   fit-margin-right="0"
   fit-margin-bottom="0"
   inkscape:zoom="0.28032165"
   inkscape:cx="24.342001"
   inkscape:cy="24.253988"
   inkscape:window-x="0"
   inkscape:window-y="0"
   inkscape:window-maximized="0"
   inkscape:current-layer="Calque_1" />
<circle
   cx="24.191"
   cy="24.191"
   r="24.191"
   id="circle2"
   style="fill:#006633" />
<g
   id="l2ste0_1_"
   transform="translate(-273.29801,-396.817)">
	<g
   id="g52">
		
			<path
   stroke-miterlimit="10"
   d="m 299.011,403.504 c 0.16,0 0.32,0 0.481,0 0.21,0.096 0.409,0.203 0.56,0.359 10e-4,3.379 -0.119,6.637 -0.12,10.016 2.575,0.562 5.183,1.092 7.771,1.641 0.012,0.045 -0.025,0.133 -0.08,0.441 -0.037,0.205 -0.037,0.443 -0.08,0.602 -0.438,0.312 -1.217,0.199 -1.883,0.199 -0.176,1.133 -0.094,2.523 -0.2,3.727 0.935,0.373 1.951,0.664 2.964,0.961 -0.142,0.48 0.076,1.244 0.08,1.842 -0.366,0.061 -0.621,0.232 -1.001,0.279 0.408,2.049 0.815,4.1 1.201,6.17 0.697,0.225 1.3,0.543 1.603,1.162 0,0.025 0,0.053 0,0.08 -0.409,0.207 -0.581,0.641 -1.041,0.721 -0.99,0.17 -2.408,-0.52 -3.125,-0.842 -0.96,-0.43 -1.811,-0.887 -2.604,-1.322 -1.811,-0.992 -3.312,-2.102 -4.887,-2.963 -0.163,0.17 -0.07,0.598 -0.16,0.84 -0.334,0.135 -0.669,0.266 -1.082,0.322 -0.211,2.826 -0.42,5.533 -0.641,8.41 0.644,0.479 1.576,0.668 1.603,1.764 -0.52,0.254 -1.188,0.361 -1.723,0.6 -0.054,0 -0.106,0 -0.16,0 -4.956,-2.855 -9.226,-6.396 -11.816,-11.615 0,-0.027 0,-0.053 0,-0.08 0.516,-0.125 0.943,-0.338 1.442,-0.48 0.269,0.297 0.534,0.662 0.801,1 0.267,0.338 0.49,0.736 0.801,0.922 0.333,-1.711 0.716,-3.369 1.082,-5.047 -0.376,-0.48 -0.268,-1.654 -0.36,-2.283 0.257,-0.025 0.757,-0.113 1.001,-0.281 -1.604,-5.324 -3.109,-10.748 -4.687,-16.102 0.418,-0.354 1.154,-0.566 1.923,-0.439 0.129,0.084 0.03,0.396 0.2,0.439 3.874,-0.152 7.526,-0.277 11.416,-0.4 0.018,-0.389 0.334,-0.53 0.721,-0.643 z m -0.481,0.519 c 0.302,0.127 0.172,0.684 0.24,1.043 0.007,0.113 -0.262,-0.049 -0.2,0.119 -0.044,0.939 0.15,1.639 0.24,2.443 -0.1,0.113 -0.127,0.109 -0.16,0.281 -0.083,0.418 0.055,1.092 0.08,1.682 0.129,3.059 0.252,6.191 0.32,8.893 0.222,0.086 0.375,0.24 0.641,0.279 0.007,-4.959 0.177,-9.717 0.201,-14.82 -0.229,-0.359 -1.227,-0.404 -1.362,0.08 z m -13.579,0.563 c 1.143,3.93 2.219,7.928 3.445,11.775 0.218,-0.129 0.568,-0.125 0.681,-0.361 -0.58,-2.797 -1.249,-5.732 -1.803,-8.531 -0.217,-1.096 -0.64,-2.297 -0.681,-3.205 -0.624,-0.1 -1.237,0.076 -1.642,0.322 z m 1.843,0.119 c 0.071,0.33 0.125,0.676 0.24,0.961 3.946,-0.271 7.747,-0.484 11.576,-0.721 -0.028,-0.197 -0.056,-0.398 -0.04,-0.641 -3.967,0.092 -7.839,0.28 -11.776,0.401 z m 0.28,1.121 c 0.142,0.607 0.254,1.242 0.4,1.844 3.635,-0.318 7.294,-0.611 10.976,-0.881 0.032,-0.268 -0.026,-0.578 -0.04,-0.883 -0.013,-0.275 0.104,-0.66 -0.12,-0.801 -3.773,0.29 -7.48,0.45 -11.216,0.721 z m 0.441,2.004 c 0.021,0.34 0.145,0.576 0.16,0.92 3.69,-0.381 7.387,-0.758 10.976,-1.24 -0.111,-0.104 0.027,-0.455 -0.08,-0.562 -3.722,0.257 -7.39,0.568 -11.056,0.882 z m 0.24,1.082 c 0.452,2.418 1.025,4.715 1.482,7.129 0.485,0.268 0.981,0.469 1.522,0.721 0.367,0.172 1.18,0.705 1.562,0.721 0.405,0.018 1.12,-0.285 1.603,-0.4 1.667,-0.398 3.35,-0.812 4.887,-1.201 -0.199,-2.662 -0.095,-5.619 -0.4,-8.131 -3.568,0.37 -7.067,0.81 -10.656,1.161 z m 12.218,5.166 c -0.069,0.092 -0.086,0.234 -0.08,0.4 0.864,0.225 1.769,0.484 2.723,0.721 1.463,0.363 3.082,1.074 4.566,0.361 -2.438,-0.458 -4.779,-1.015 -7.209,-1.482 z m 3.924,1.643 c -1.292,-0.336 -2.794,-0.787 -4.005,-1.041 0,0.199 0,0.4 0,0.6 0.932,0.215 1.883,0.455 2.844,0.682 1.49,0.352 3.008,0.859 4.646,0.521 0.064,-0.217 0.044,-0.518 0.08,-0.762 -1.232,0.519 -2.466,0.285 -3.565,0 z m -4.004,-0.241 c 0.007,1.102 -0.07,2.119 -0.041,3.244 1.451,0.473 2.914,0.932 4.366,1.402 0,-1.229 0,-2.457 0,-3.686 -1.461,-0.299 -2.844,-0.68 -4.325,-0.96 z m -7.331,2.082 c 0.757,0.473 1.647,0.811 2.483,1.201 1.245,-0.396 2.583,-0.701 3.846,-1.08 -0.024,-0.551 0.037,-1.186 -0.12,-1.604 -2.082,0.483 -4.107,1.023 -6.209,1.483 z m -1.962,-0.679 c -0.702,-0.328 -1.383,-0.883 -2.003,-0.4 1.396,1.072 2.814,2.125 4.205,3.203 0.677,-0.244 1.27,-0.572 1.963,-0.801 -1.182,-0.647 -2.846,-1.387 -4.165,-2.002 z m 13.778,3.805 c 0.331,0.07 0.577,0.225 0.922,0.281 0.036,-1.42 0.128,-2.783 0.12,-4.246 -0.361,-0.066 -0.7,-0.156 -1.042,-0.24 0,1.4 0,2.802 0,4.205 z m -15.501,-3.045 c 0.826,0.523 1.885,1.32 2.764,1.924 0.474,0.324 0.733,0.715 1.402,0.641 0.41,-0.045 1.61,-0.408 1.802,-0.682 0.089,-0.125 0.131,-0.363 0.12,-0.561 -0.732,0.295 -1.449,0.607 -2.163,0.922 -1.413,-1.045 -2.772,-2.141 -4.205,-3.164 0.054,0.343 0.227,0.572 0.28,0.92 z m 0.761,3.244 c 0.151,-0.088 0.334,-0.146 0.4,-0.32 -0.153,-0.768 -0.328,-1.514 -0.48,-2.283 -0.294,-0.146 -0.513,-0.367 -0.801,-0.52 0.274,1.06 0.614,2.054 0.881,3.123 z m 9.133,-3.004 c -1.04,0.334 -2.314,0.602 -3.324,0.922 -0.075,0.023 -0.388,-0.002 -0.321,0.201 0.465,0.02 1.025,-0.172 1.562,-0.32 0.541,-0.152 1.104,-0.338 1.603,-0.482 0.175,0.094 0.375,0.16 0.601,0.201 -0.043,-0.156 0.093,-0.494 -0.08,-0.521 -0.015,-0.001 -0.028,-0.001 -0.041,-0.001 z m -0.561,0.521 c -0.444,0.006 -1.017,0.305 -1.522,0.441 -0.556,0.148 -1.067,0.307 -1.562,0.4 -0.086,0.447 -0.422,0.645 -0.841,0.76 0.042,1.533 0.187,3.211 0.12,4.607 -0.427,0 -0.854,0 -1.281,0 -0.131,-1.379 -0.175,-2.844 -0.321,-4.207 -0.591,-0.318 -0.922,-0.23 -1.602,-0.039 -0.733,0.207 -1.259,0.432 -1.643,0.801 -0.021,-0.111 -0.059,-0.209 -0.08,-0.32 -0.267,0.053 -0.468,0.174 -0.761,0.199 1.014,0.988 2.143,1.973 3.404,2.926 1.164,0.877 2.582,1.914 4.286,2.043 1.286,0.098 2.016,-0.416 2.844,-0.762 2.875,-1.199 5.971,-2.555 8.732,-3.766 -0.873,-0.223 -1.627,-0.562 -2.523,-0.76 -0.026,0.146 0.052,0.398 -0.04,0.48 -0.425,-0.15 -0.888,-0.262 -1.242,-0.48 0,-0.148 0,-0.295 0,-0.441 -1.426,-0.457 -2.834,-0.932 -4.285,-1.361 -0.08,-0.152 0.024,0.205 -0.121,0.119 -0.535,-0.214 -0.955,-0.649 -1.562,-0.64 z m -8.092,1.682 c 0.47,-0.117 0.905,-0.27 1.402,-0.359 -0.523,-0.438 -1.183,-0.953 -1.763,-1.203 0.165,0.478 0.215,1.068 0.361,1.562 z m 0.04,0.24 c 0.013,0.055 0.058,0.078 0.04,0.162 0.577,-0.186 1.212,-0.312 1.763,-0.521 -0.523,-0.24 -1.343,0.148 -1.803,0.359 z m 2.804,0.121 c 0.148,1.293 0.203,2.682 0.321,4.006 0.334,0 0.667,0 1.001,0 -0.053,-1.436 -0.088,-3.084 -0.16,-4.367 -0.026,0 -0.054,0 -0.08,0 -0.357,0.123 -0.772,0.189 -1.082,0.361 z m -4.205,2.403 c 1.314,1.057 3.013,2.373 4.406,3.486 0.504,0.402 0.999,0.902 1.481,1.16 1.151,0.621 2.71,0.102 3.726,-0.24 -0.031,-0.283 0.061,-0.445 0.04,-0.721 1.993,-0.896 4.013,-1.688 6.008,-2.523 0.964,-0.402 1.812,-0.914 2.965,-1.041 0.096,0.104 -0.003,0.402 0.16,0.441 0.253,-0.096 0.517,-0.178 0.801,-0.24 -0.073,-0.488 -0.101,-1.021 -0.16,-1.523 -2.723,1.123 -5.604,2.355 -8.412,3.525 -0.938,0.391 -1.814,1.043 -2.964,1.041 -1.831,-0.004 -3.291,-1.039 -4.566,-1.963 -1.216,-0.879 -2.622,-2.164 -3.645,-2.963 0.106,0.555 0.081,1.012 0.16,1.561 z m 17.825,0.441 c 0.491,2.365 0.985,4.729 1.521,7.051 0.203,-0.025 0.353,-0.104 0.521,-0.162 -0.228,-1.158 -0.43,-2.352 -0.681,-3.523 -0.253,-1.182 -0.388,-2.395 -0.762,-3.484 -0.179,0.057 -0.429,0.048 -0.599,0.118 z m -18.987,6.209 c 0.222,0.086 0.375,0.238 0.641,0.279 0.398,-2.059 0.853,-4.061 1.242,-6.127 -0.144,-0.164 -0.304,-0.312 -0.521,-0.4 -0.463,2.074 -0.905,4.168 -1.362,6.248 z m 18.746,-6.17 c -0.723,0.4 -1.601,0.643 -2.323,1.043 0.96,0.494 1.961,0.949 2.924,1.441 -0.214,-0.812 -0.291,-1.765 -0.601,-2.484 z m -17.144,2.525 c 2.104,1.506 4.338,3.133 6.409,4.646 0.102,0.074 0.245,0.244 0.4,0.199 0.065,-0.922 0.137,-1.838 0.2,-2.764 -1.477,0.115 -2.129,-0.691 -2.884,-1.281 -1.242,-0.973 -2.42,-1.885 -3.646,-2.844 -0.002,-0.025 -0.006,-0.049 -0.04,-0.041 -0.146,0.695 -0.283,1.4 -0.439,2.085 z m 16.183,-0.601 c -0.383,-0.189 -1.202,-0.787 -1.603,-0.801 -0.318,-0.012 -0.576,0.309 -0.921,0.32 1.35,0.773 2.852,1.395 4.286,2.082 -0.031,-0.303 -0.092,-0.576 -0.16,-0.84 -0.449,-0.255 -1.003,-0.466 -1.602,-0.761 z m -2.724,-0.32 c -0.042,-0.014 -0.124,0.025 -0.16,0.039 -0.604,0.252 -1.361,0.576 -2.003,0.883 2.103,1.568 4.621,2.721 7.25,3.764 -0.147,-0.867 -0.354,-1.676 -0.521,-2.523 -1.406,-0.562 -3.159,-1.677 -4.566,-2.163 z m -2.403,0.961 c -0.392,0.25 -0.924,0.359 -1.322,0.602 1.45,0.939 2.997,1.936 4.767,2.924 1.138,0.635 2.523,1.406 3.926,1.842 0.434,0.135 1.176,0.379 1.643,0.281 0.354,-0.074 0.564,-0.438 0.841,-0.682 -0.307,-0.428 -0.7,-0.77 -1.322,-0.881 -0.056,0.141 0.112,0.256 0,0.32 -0.265,0.096 -0.514,0.207 -0.801,0.281 -0.073,-0.221 -0.135,-0.453 -0.16,-0.721 -2.715,-1.134 -5.386,-2.308 -7.572,-3.966 z m -11.256,0.96 c 2.142,1.498 4.414,3.113 6.529,4.607 0.112,0.078 0.246,0.227 0.4,0.199 0.053,-0.188 0.041,-0.439 0.04,-0.68 -2.257,-1.656 -4.496,-3.328 -6.81,-4.928 -0.029,0.293 -0.097,0.545 -0.159,0.802 z m -2.964,-0.32 c -0.4,0.135 -0.807,0.262 -1.162,0.441 2.611,5.066 6.788,8.566 11.656,11.375 0.547,-0.215 1.236,-0.285 1.683,-0.6 -0.174,-0.762 -0.809,-1.062 -1.442,-1.363 -0.094,0.146 0.01,0.492 -0.08,0.641 -0.347,-0.293 -0.745,-0.535 -1.081,-0.84 -0.023,-0.131 0.026,-0.188 0.04,-0.281 -0.857,-0.389 -1.527,-0.979 -2.243,-1.562 -1.79,-1.457 -3.476,-3.025 -5.007,-4.646 0.006,0.141 -0.011,0.258 -0.08,0.32 -0.326,-0.141 -0.663,-0.271 -0.922,-0.48 0.126,-0.287 0.138,-0.689 0.24,-1 -0.544,-0.659 -1.014,-1.392 -1.602,-2.005 z m 2.924,0.522 c 0.012,0.348 -0.534,2.049 -0.48,2.363 0.035,0.207 0.535,0.676 0.761,0.922 1.396,1.512 2.935,2.744 4.446,3.965 0.638,0.516 1.196,1.125 1.963,1.402 0.098,-1.238 0.175,-2.496 0.28,-3.727 -2.285,-1.679 -4.615,-3.316 -6.97,-4.925 z m 7.41,0.839 c -0.192,2.746 -0.368,5.508 -0.601,8.213 0.245,0.145 0.613,0.582 0.801,0.52 0.161,-2.668 0.485,-5.609 0.642,-8.371 0.005,-0.105 0.142,-0.434 -0.081,-0.48 -0.237,0.056 -0.5,0.087 -0.761,0.118 z"
   id="path4"
   inkscape:connector-curvature="0"
   style="clip-rule:evenodd;fill:none;fill-rule:evenodd;stroke:#ffffff;stroke-width:0.5;stroke-linecap:round;stroke-linejoin:round;stroke-miterlimit:10" />
		
			<path
   stroke-miterlimit="10"
   d="m 299.893,403.943 c -0.024,5.104 -0.194,9.861 -0.201,14.82 -0.266,-0.039 -0.419,-0.193 -0.641,-0.279 -0.068,-2.701 -0.191,-5.834 -0.32,-8.893 -0.025,-0.59 -0.163,-1.264 -0.08,-1.682 0.033,-0.172 0.061,-0.168 0.16,-0.281 -0.09,-0.805 -0.284,-1.504 -0.24,-2.443 -0.062,-0.168 0.207,-0.006 0.2,-0.119 -0.068,-0.359 0.062,-0.916 -0.24,-1.043 0.134,-0.484 1.132,-0.439 1.362,-0.08 z"
   id="path6"
   inkscape:connector-curvature="0"
   style="clip-rule:evenodd;fill:none;fill-rule:evenodd;stroke:#ffffff;stroke-width:0.5;stroke-linecap:round;stroke-linejoin:round;stroke-miterlimit:10" />
		
			<path
   stroke-miterlimit="10"
   d="m 286.594,404.264 c 0.041,0.908 0.464,2.109 0.681,3.205 0.554,2.799 1.223,5.734 1.803,8.531 -0.112,0.236 -0.463,0.232 -0.681,0.361 -1.227,-3.848 -2.303,-7.846 -3.445,-11.775 0.404,-0.246 1.017,-0.422 1.642,-0.322 z"
   id="path8"
   inkscape:connector-curvature="0"
   style="clip-rule:evenodd;fill:none;fill-rule:evenodd;stroke:#ffffff;stroke-width:0.5;stroke-linecap:round;stroke-linejoin:round;stroke-miterlimit:10" />
		
			<path
   stroke-miterlimit="10"
   d="m 298.57,404.305 c -0.016,0.242 0.012,0.443 0.04,0.641 -3.829,0.236 -7.63,0.449 -11.576,0.721 -0.115,-0.285 -0.169,-0.631 -0.24,-0.961 3.937,-0.122 7.809,-0.31 11.776,-0.401 z"
   id="path10"
   inkscape:connector-curvature="0"
   style="clip-rule:evenodd;fill:none;fill-rule:evenodd;stroke:#ffffff;stroke-width:0.5;stroke-linecap:round;stroke-linejoin:round;stroke-miterlimit:10" />
		
			<path
   stroke-miterlimit="10"
   d="m 298.57,406.947 c 0.107,0.107 -0.031,0.459 0.08,0.562 -3.589,0.482 -7.285,0.859 -10.976,1.24 -0.016,-0.344 -0.14,-0.58 -0.16,-0.92 3.667,-0.313 7.335,-0.624 11.056,-0.882 z"
   id="path12"
   inkscape:connector-curvature="0"
   style="clip-rule:evenodd;fill:none;fill-rule:evenodd;stroke:#ffffff;stroke-width:0.5;stroke-linecap:round;stroke-linejoin:round;stroke-miterlimit:10" />
		
			<path
   stroke-miterlimit="10"
   d="m 307.182,415.561 c -1.484,0.713 -3.104,0.002 -4.566,-0.361 -0.954,-0.236 -1.858,-0.496 -2.723,-0.721 -0.006,-0.166 0.011,-0.309 0.08,-0.4 2.43,0.466 4.771,1.023 7.209,1.482 z"
   id="path14"
   inkscape:connector-curvature="0"
   style="clip-rule:evenodd;fill:none;fill-rule:evenodd;stroke:#ffffff;stroke-width:0.5;stroke-linecap:round;stroke-linejoin:round;stroke-miterlimit:10" />
		
			<path
   stroke-miterlimit="10"
   d="m 307.463,415.721 c -0.036,0.244 -0.016,0.545 -0.08,0.762 -1.639,0.338 -3.156,-0.17 -4.646,-0.521 -0.961,-0.227 -1.912,-0.467 -2.844,-0.682 0,-0.199 0,-0.4 0,-0.6 1.211,0.254 2.713,0.705 4.005,1.041 1.098,0.285 2.332,0.519 3.565,0 z"
   id="path16"
   inkscape:connector-curvature="0"
   style="clip-rule:evenodd;fill:none;fill-rule:evenodd;stroke:#ffffff;stroke-width:0.5;stroke-linecap:round;stroke-linejoin:round;stroke-miterlimit:10" />
		
			<path
   stroke-miterlimit="10"
   d="m 298.771,416.08 c 0.157,0.418 0.096,1.053 0.12,1.604 -1.263,0.379 -2.601,0.684 -3.846,1.08 -0.836,-0.391 -1.727,-0.729 -2.483,-1.201 2.102,-0.461 4.127,-1.001 6.209,-1.483 z"
   id="path18"
   inkscape:connector-curvature="0"
   style="clip-rule:evenodd;fill:none;fill-rule:evenodd;stroke:#ffffff;stroke-width:0.5;stroke-linecap:round;stroke-linejoin:round;stroke-miterlimit:10" />
		
			<path
   stroke-miterlimit="10"
   d="m 294.765,418.885 c -0.693,0.229 -1.286,0.557 -1.963,0.801 -1.391,-1.078 -2.809,-2.131 -4.205,-3.203 0.62,-0.482 1.301,0.072 2.003,0.4 1.319,0.615 2.983,1.355 4.165,2.002 z"
   id="path20"
   inkscape:connector-curvature="0"
   style="clip-rule:evenodd;fill:none;fill-rule:evenodd;stroke:#ffffff;stroke-width:0.5;stroke-linecap:round;stroke-linejoin:round;stroke-miterlimit:10" />
		
			<path
   stroke-miterlimit="10"
   d="m 304.378,416.482 c 0.342,0.084 0.681,0.174 1.042,0.24 0.008,1.463 -0.084,2.826 -0.12,4.246 -0.345,-0.057 -0.591,-0.211 -0.922,-0.281 0,-1.402 0,-2.804 0,-4.205 z"
   id="path22"
   inkscape:connector-curvature="0"
   style="clip-rule:evenodd;fill:none;fill-rule:evenodd;stroke:#ffffff;stroke-width:0.5;stroke-linecap:round;stroke-linejoin:round;stroke-miterlimit:10" />
		
			<path
   stroke-miterlimit="10"
   d="m 288.597,416.723 c 1.433,1.023 2.792,2.119 4.205,3.164 0.714,-0.314 1.431,-0.627 2.163,-0.922 0.011,0.197 -0.031,0.436 -0.12,0.561 -0.191,0.273 -1.392,0.637 -1.802,0.682 -0.669,0.074 -0.929,-0.316 -1.402,-0.641 -0.879,-0.604 -1.938,-1.4 -2.764,-1.924 -0.053,-0.348 -0.226,-0.577 -0.28,-0.92 z"
   id="path24"
   inkscape:connector-curvature="0"
   style="clip-rule:evenodd;fill:none;fill-rule:evenodd;stroke:#ffffff;stroke-width:0.5;stroke-linecap:round;stroke-linejoin:round;stroke-miterlimit:10" />
		
			<path
   stroke-miterlimit="10"
   d="m 288.757,417.764 c 0.288,0.152 0.507,0.373 0.801,0.52 0.152,0.77 0.327,1.516 0.48,2.283 -0.066,0.174 -0.249,0.232 -0.4,0.32 -0.267,-1.069 -0.607,-2.063 -0.881,-3.123 z"
   id="path26"
   inkscape:connector-curvature="0"
   style="clip-rule:evenodd;fill:none;fill-rule:evenodd;stroke:#ffffff;stroke-width:0.5;stroke-linecap:round;stroke-linejoin:round;stroke-miterlimit:10" />
		
			<path
   stroke-miterlimit="10"
   d="m 298.811,417.883 c 0.173,0.027 0.037,0.365 0.08,0.521 -0.226,-0.041 -0.426,-0.107 -0.601,-0.201 -0.499,0.145 -1.062,0.33 -1.603,0.482 -0.537,0.148 -1.098,0.34 -1.562,0.32 -0.066,-0.203 0.246,-0.178 0.321,-0.201 1.01,-0.32 2.284,-0.588 3.324,-0.922 0.014,10e-4 0.027,10e-4 0.041,10e-4 z"
   id="path28"
   inkscape:connector-curvature="0"
   style="clip-rule:evenodd;fill:none;fill-rule:evenodd;stroke:#ffffff;stroke-width:0.5;stroke-linecap:round;stroke-linejoin:round;stroke-miterlimit:10" />
		
			<path
   stroke-miterlimit="10"
   d="m 299.771,419.045 c 0.146,0.086 0.041,-0.271 0.121,-0.119 1.451,0.43 2.859,0.904 4.285,1.361 0,0.146 0,0.293 0,0.441 0.354,0.219 0.817,0.33 1.242,0.48 0.092,-0.082 0.014,-0.334 0.04,-0.48 0.896,0.197 1.65,0.537 2.523,0.76 -2.762,1.211 -5.857,2.566 -8.732,3.766 -0.828,0.346 -1.558,0.859 -2.844,0.762 -1.704,-0.129 -3.122,-1.166 -4.286,-2.043 -1.262,-0.953 -2.391,-1.938 -3.404,-2.926 0.293,-0.025 0.494,-0.146 0.761,-0.199 0.021,0.111 0.059,0.209 0.08,0.32 0.384,-0.369 0.909,-0.594 1.643,-0.801 0.68,-0.191 1.011,-0.279 1.602,0.039 0.146,1.363 0.19,2.828 0.321,4.207 0.427,0 0.854,0 1.281,0 0.066,-1.396 -0.078,-3.074 -0.12,-4.607 0.419,-0.115 0.755,-0.312 0.841,-0.76 0.495,-0.094 1.007,-0.252 1.562,-0.4 0.506,-0.137 1.078,-0.436 1.522,-0.441 0.608,-0.01 1.028,0.425 1.562,0.64 z"
   id="path30"
   inkscape:connector-curvature="0"
   style="clip-rule:evenodd;fill:none;fill-rule:evenodd;stroke:#ffffff;stroke-width:0.5;stroke-linecap:round;stroke-linejoin:round;stroke-miterlimit:10" />
		
			<path
   stroke-miterlimit="10"
   d="m 291.961,419.967 c -0.551,0.209 -1.186,0.336 -1.763,0.521 0.018,-0.084 -0.027,-0.107 -0.04,-0.162 0.46,-0.211 1.28,-0.599 1.803,-0.359 z"
   id="path32"
   inkscape:connector-curvature="0"
   style="clip-rule:evenodd;fill:none;fill-rule:evenodd;stroke:#ffffff;stroke-width:0.5;stroke-linecap:round;stroke-linejoin:round;stroke-miterlimit:10" />
		
			<path
   stroke-miterlimit="10"
   d="m 294.044,420.086 c 0.026,0 0.054,0 0.08,0 0.072,1.283 0.107,2.932 0.16,4.367 -0.334,0 -0.667,0 -1.001,0 -0.118,-1.324 -0.173,-2.713 -0.321,-4.006 0.31,-0.172 0.725,-0.238 1.082,-0.361 z"
   id="path34"
   inkscape:connector-curvature="0"
   style="clip-rule:evenodd;fill:none;fill-rule:evenodd;stroke:#ffffff;stroke-width:0.5;stroke-linecap:round;stroke-linejoin:round;stroke-miterlimit:10" />
		
			<path
   stroke-miterlimit="10"
   d="m 307.182,423.172 c 0.374,1.09 0.509,2.303 0.762,3.484 0.251,1.172 0.453,2.365 0.681,3.523 -0.168,0.059 -0.317,0.137 -0.521,0.162 -0.536,-2.322 -1.03,-4.686 -1.521,-7.051 0.169,-0.069 0.419,-0.06 0.599,-0.118 z"
   id="path36"
   inkscape:connector-curvature="0"
   style="clip-rule:evenodd;fill:none;fill-rule:evenodd;stroke:#ffffff;stroke-width:0.5;stroke-linecap:round;stroke-linejoin:round;stroke-miterlimit:10" />
		
			<path
   stroke-miterlimit="10"
   d="m 288.957,423.252 c 0.217,0.088 0.377,0.236 0.521,0.4 -0.39,2.066 -0.844,4.068 -1.242,6.127 -0.266,-0.041 -0.419,-0.193 -0.641,-0.279 0.457,-2.08 0.899,-4.174 1.362,-6.248 z"
   id="path38"
   inkscape:connector-curvature="0"
   style="clip-rule:evenodd;fill:none;fill-rule:evenodd;stroke:#ffffff;stroke-width:0.5;stroke-linecap:round;stroke-linejoin:round;stroke-miterlimit:10" />
		
			<path
   stroke-miterlimit="10"
   d="m 306.982,426.016 c 0.068,0.264 0.129,0.537 0.16,0.84 -1.435,-0.688 -2.937,-1.309 -4.286,-2.082 0.345,-0.012 0.603,-0.332 0.921,-0.32 0.4,0.014 1.22,0.611 1.603,0.801 0.599,0.294 1.153,0.505 1.602,0.761 z"
   id="path40"
   inkscape:connector-curvature="0"
   style="clip-rule:evenodd;fill:none;fill-rule:evenodd;stroke:#ffffff;stroke-width:0.5;stroke-linecap:round;stroke-linejoin:round;stroke-miterlimit:10" />
		
			<path
   stroke-miterlimit="10"
   d="m 307.823,429.861 c 0.025,0.268 0.087,0.5 0.16,0.721 0.287,-0.074 0.536,-0.186 0.801,-0.281 0.112,-0.064 -0.056,-0.18 0,-0.32 0.622,0.111 1.016,0.453 1.322,0.881 -0.276,0.244 -0.486,0.607 -0.841,0.682 -0.467,0.098 -1.209,-0.146 -1.643,-0.281 -1.402,-0.436 -2.788,-1.207 -3.926,-1.842 -1.77,-0.988 -3.316,-1.984 -4.767,-2.924 0.398,-0.242 0.931,-0.352 1.322,-0.602 2.188,1.658 4.859,2.832 7.572,3.966 z"
   id="path42"
   inkscape:connector-curvature="0"
   style="clip-rule:evenodd;fill:none;fill-rule:evenodd;stroke:#ffffff;stroke-width:0.5;stroke-linecap:round;stroke-linejoin:round;stroke-miterlimit:10" />
		
			<path
   stroke-miterlimit="10"
   d="m 289.157,426.055 c 2.313,1.6 4.553,3.271 6.81,4.928 0.001,0.24 0.013,0.492 -0.04,0.68 -0.154,0.027 -0.288,-0.121 -0.4,-0.199 -2.115,-1.494 -4.388,-3.109 -6.529,-4.607 0.061,-0.259 0.129,-0.511 0.159,-0.802 z"
   id="path44"
   inkscape:connector-curvature="0"
   style="clip-rule:evenodd;fill:none;fill-rule:evenodd;stroke:#ffffff;stroke-width:0.5;stroke-linecap:round;stroke-linejoin:round;stroke-miterlimit:10" />
		
			<path
   stroke-miterlimit="10"
   d="m 287.635,428.539 c -0.103,0.311 -0.114,0.713 -0.24,1 0.259,0.209 0.596,0.34 0.922,0.48 0.069,-0.062 0.086,-0.18 0.08,-0.32 1.531,1.621 3.217,3.189 5.007,4.646 0.716,0.584 1.386,1.174 2.243,1.562 -0.014,0.094 -0.063,0.15 -0.04,0.281 0.336,0.305 0.734,0.547 1.081,0.84 0.09,-0.148 -0.014,-0.494 0.08,-0.641 0.634,0.301 1.269,0.602 1.442,1.363 -0.446,0.314 -1.136,0.385 -1.683,0.6 -4.868,-2.809 -9.045,-6.309 -11.656,-11.375 0.355,-0.18 0.762,-0.307 1.162,-0.441 0.588,0.614 1.058,1.347 1.602,2.005 z"
   id="path46"
   inkscape:connector-curvature="0"
   style="clip-rule:evenodd;fill:none;fill-rule:evenodd;stroke:#ffffff;stroke-width:0.5;stroke-linecap:round;stroke-linejoin:round;stroke-miterlimit:10" />
		
			<path
   stroke-miterlimit="10"
   d="m 297.128,427.777 c 0.223,0.047 0.086,0.375 0.081,0.48 -0.156,2.762 -0.48,5.703 -0.642,8.371 -0.188,0.062 -0.556,-0.375 -0.801,-0.52 0.232,-2.705 0.408,-5.467 0.601,-8.213 0.261,-0.03 0.524,-0.061 0.761,-0.118 z"
   id="path48"
   inkscape:connector-curvature="0"
   style="clip-rule:evenodd;fill:none;fill-rule:evenodd;stroke:#ffffff;stroke-width:0.5;stroke-linecap:round;stroke-linejoin:round;stroke-miterlimit:10" />
		
			<path
   stroke-miterlimit="10"
   d="m 288.597,421.289 c 1.022,0.799 2.429,2.084 3.645,2.963 1.275,0.924 2.735,1.959 4.566,1.963 1.149,0.002 2.026,-0.65 2.964,-1.041 2.809,-1.17 5.689,-2.402 8.412,-3.525 0.06,0.502 0.087,1.035 0.16,1.523 -0.284,0.062 -0.548,0.145 -0.801,0.24 -0.163,-0.039 -0.064,-0.338 -0.16,-0.441 -1.153,0.127 -2.001,0.639 -2.965,1.041 -1.995,0.836 -4.015,1.627 -6.008,2.523 0.021,0.275 -0.071,0.438 -0.04,0.721 -1.016,0.342 -2.574,0.861 -3.726,0.24 -0.482,-0.258 -0.978,-0.758 -1.481,-1.16 -1.394,-1.113 -3.092,-2.43 -4.406,-3.486 -0.079,-0.549 -0.054,-1.006 -0.16,-1.561 z"
   id="path50"
   inkscape:connector-curvature="0"
   style="clip-rule:evenodd;fill:none;fill-rule:evenodd;stroke:#ffffff;stroke-width:0.5;stroke-linecap:round;stroke-linejoin:round;stroke-miterlimit:10" />
	</g>
</g>
</svg>