<?xml version="1.0" encoding="utf-8"?>
<!-- Generator: Adobe Illustrator 15.0.0, SVG Export Plug-In . SVG Version: 6.00 Build 0)  -->
<!DOCTYPE svg PUBLIC "-//W3C//DTD SVG 1.1//EN" "http://www.w3.org/Graphics/SVG/1.1/DTD/svg11.dtd">
<svg version="1.1"
	 id="Calque_1" xmlns:rdf="http://www.w3.org/1999/02/22-rdf-syntax-ns#" xmlns:svg="http://www.w3.org/2000/svg" xmlns:inkscape="http://www.inkscape.org/namespaces/inkscape" sodipodi:docname="pastille_autre.svg" xmlns:dc="http://purl.org/dc/elements/1.1/" inkscape:version="0.92.3 (unknown)" xmlns:sodipodi="http://sodipodi.sourceforge.net/DTD/sodipodi-0.dtd" xmlns:cc="http://creativecommons.org/ns#"
	 xmlns="http://www.w3.org/2000/svg" xmlns:xlink="http://www.w3.org/1999/xlink" x="0px" y="0px" width="48.382px"
	 height="48.382px" viewBox="0 0 48.382 48.382" enable-background="new 0 0 48.382 48.382" xml:space="preserve">
<sodipodi:namedview  fit-margin-top="0" id="namedview9" showgrid="false" inkscape:window-y="24" pagecolor="#ffffff" borderopacity="1" fit-margin-left="0" objecttolerance="10" inkscape:window-maximized="0" inkscape:window-width="988" fit-margin-right="0" bordercolor="#666666" inkscape:zoom="8.9702927" inkscape:cx="23.439204" inkscape:cy="28.656043" fit-margin-bottom="0" inkscape:window-height="716" inkscape:current-layer="Calque_1" gridtolerance="10" inkscape:pageopacity="0" guidetolerance="10" inkscape:window-x="75" inkscape:pageshadow="2">
	</sodipodi:namedview>
<g id="g6" transform="translate(-273.15699,-396.69001)">
</g>
<g>
	<circle fill="#A6358A" cx="24.191" cy="24.191" r="24.191"/>
	<g>
		<path fill-rule="evenodd" clip-rule="evenodd" fill="#FFFFFF" d="M14.017,25.241c1.746,1.063,3.065,1.147,5.538,1.73
			c1.564,2.59,2.888,5.42,4.5,7.961c1.578-2.646,3.091-5.051,4.498-7.614c5.865-1.174,9.802-4.275,11.769-9.346
			c-1.006-2.001-1.909-3.625-2.873-5.545c-0.876-1.741-3.638-6.251-1.973-5.53c2.631,2.906,3.824,7.252,5.885,10.729
			c1.563,1.214,2.601,0.813,2.769,3.114c0.284,3.898-9.539,10.145-13.845,11.076c0,4.5,0,5.085,0,9.584
			c-4.385,0-8.306,0.161-12.689,0.161c-0.068-4.535-0.138-5.978-0.117-10.091c-3.319-0.986-7.101-3.225-9.345-5.191
			c-1.404-1.231-4.4-4.627-3.808-6.577c0.289-0.947,0.617-1.343,1.657-1.365c2.212-0.046,3.916,4.604,6.996,6.211"/>
		<path fill-rule="evenodd" clip-rule="evenodd" fill="#FFFFFF" d="M21.978,13.473c4.503-1.169,8.842,1.49,8.307,6.923
			c-0.314,3.182-3.127,5.485-6.229,5.537C15.961,26.069,15.659,15.113,21.978,13.473z"/>
		<path fill-rule="evenodd" clip-rule="evenodd" fill="#FFFFFF" d="M21.286,26.28c2.294,1.426,3.018,1.084,5.191,0
			c0,0.923,0,1.846,0,2.768c-2.097-0.731-3.011-0.77-5.191,0C21.286,28.125,21.286,27.203,21.286,26.28z"/>
	</g>
</g>
</svg>
