"totalTVA","tauxTVA","blocksCatalogue","userName","idContrat","idClient","titre","client","ville","codePostal","adresse","numeroAdresse","totalHT","totalTTC","commentaire","joursTravail","nbEmployes","totalHTPerDayPerEmployes","coutHTAchatMatos","coutHTReventeMatos","maindoeuvre","envoye","dateCreation","dernierAcces","dernierMAJ","nbAcces","etat","__v"
"[0]","[0]","[]","bosc",1,"5f749562c0b2c3607b7db7d2","","test","TOULOUSE","31100","","",0,0,"",0,0,0,0,0,0,false,"2020-12-09T13:40:51.620Z","2020-12-09T13:40:51.620Z","2020-12-09T13:40:51.620Z",0,"DEVIS_ETAT_ENCOURS",0
"[0]","[0]","[]","bosc",2,"5fd0bfe28b8f3446c707dd28","","gaet","","","","",0,0,"",0,0,0,0,0,0,false,"2020-12-09T13:43:13.967Z","2020-12-09T13:43:13.967Z","2020-12-09T13:43:13.967Z",0,"DEVIS_ETAT_SIGNE",0
"[0]","[0]","[]","bosc",3,"5f749562c0b2c3607b7db7d2","","test","TOULOUSE","31100","","",0,0,"",0,0,0,0,0,0,true,"2020-12-09T13:44:45.988Z","2020-12-09T13:44:45.988Z","2020-12-09T13:44:45.988Z",0,"DEVIS_ETAT_SIGNE",0
"[0]","[0]","[]","bosc",4,"5f7982d377d9a952b3a0c878","","bonjour","","","","",0,0,"",0,0,0,0,0,0,false,"2020-12-09T14:00:28.113Z","2020-12-09T14:00:28.113Z","2020-12-09T14:00:28.113Z",0,"DEVIS_ETAT_SIGNE",0
"[0]","[0]","[]","bosc",5,"5fd0bfe28b8f3446c707dd28","","gaet","","","","",0,0,"",0,0,0,0,0,0,true,"2020-12-09T14:00:28.113Z","2020-12-09T14:00:28.113Z","2020-12-09T14:00:28.113Z",0,"DEVIS_ETAT_ENCOURS",0
"[0]","[0]","[]","bosc",6,"5f7982d377d9a952b3a0c878","","bonjour","","","","",0,0,"",0,0,0,0,0,0,false,"2021-02-15T21:23:37.412Z","2021-02-15T21:23:37.412Z","2021-02-15T21:23:37.412Z",0,"DEVIS_ETAT_ENCOURS",0